HLCP/simulation/qsim/HLCP.msim.vcd
$comment
	File created using the following command:
		vcd file HLCP.msim.vcd -direction
$end
$date
	Wed Sep 07 18:15:11 2022
$end
$version
	ModelSim Version 10.5b
$end
$timescale
	1ps
$end

$scope module hlcp_vhd_vec_tst $end
$var wire 1 ! busLed [6] $end
$var wire 1 " busLed [5] $end
$var wire 1 # busLed [4] $end
$var wire 1 $ busLed [3] $end
$var wire 1 % busLed [2] $end
$var wire 1 & busLed [1] $end
$var wire 1 ' busLed [0] $end
$var wire 1 ( but $end
$var wire 1 ) Clk $end
$var wire 1 * EnClk $end
$var wire 1 + led $end
$var wire 1 , Rst $end
$var wire 1 - XY [1] $end
$var wire 1 . XY [0] $end

$scope module i1 $end
$var wire 1 / gnd $end
$var wire 1 0 vcc $end
$var wire 1 1 unknown $end
$var wire 1 2 devoe $end
$var wire 1 3 devclrn $end
$var wire 1 4 devpor $end
$var wire 1 5 ww_devoe $end
$var wire 1 6 ww_devclrn $end
$var wire 1 7 ww_devpor $end
$var wire 1 8 ww_Rst $end
$var wire 1 9 ww_Clk $end
$var wire 1 : ww_but $end
$var wire 1 ; ww_XY [1] $end
$var wire 1 < ww_XY [0] $end
$var wire 1 = ww_busLed [6] $end
$var wire 1 > ww_busLed [5] $end
$var wire 1 ? ww_busLed [4] $end
$var wire 1 @ ww_busLed [3] $end
$var wire 1 A ww_busLed [2] $end
$var wire 1 B ww_busLed [1] $end
$var wire 1 C ww_busLed [0] $end
$var wire 1 D ww_led $end
$var wire 1 E ww_EnClk $end
$var wire 1 F \~QUARTUS_CREATED_ADC1~_CHSEL_bus\ [4] $end
$var wire 1 G \~QUARTUS_CREATED_ADC1~_CHSEL_bus\ [3] $end
$var wire 1 H \~QUARTUS_CREATED_ADC1~_CHSEL_bus\ [2] $end
$var wire 1 I \~QUARTUS_CREATED_ADC1~_CHSEL_bus\ [1] $end
$var wire 1 J \~QUARTUS_CREATED_ADC1~_CHSEL_bus\ [0] $end
$var wire 1 K \~QUARTUS_CREATED_ADC2~_CHSEL_bus\ [4] $end
$var wire 1 L \~QUARTUS_CREATED_ADC2~_CHSEL_bus\ [3] $end
$var wire 1 M \~QUARTUS_CREATED_ADC2~_CHSEL_bus\ [2] $end
$var wire 1 N \~QUARTUS_CREATED_ADC2~_CHSEL_bus\ [1] $end
$var wire 1 O \~QUARTUS_CREATED_ADC2~_CHSEL_bus\ [0] $end
$var wire 1 P \EnHz~clkctrl_INCLK_bus\ [3] $end
$var wire 1 Q \EnHz~clkctrl_INCLK_bus\ [2] $end
$var wire 1 R \EnHz~clkctrl_INCLK_bus\ [1] $end
$var wire 1 S \EnHz~clkctrl_INCLK_bus\ [0] $end
$var wire 1 T \Clk~inputclkctrl_INCLK_bus\ [3] $end
$var wire 1 U \Clk~inputclkctrl_INCLK_bus\ [2] $end
$var wire 1 V \Clk~inputclkctrl_INCLK_bus\ [1] $end
$var wire 1 W \Clk~inputclkctrl_INCLK_bus\ [0] $end
$var wire 1 X \~QUARTUS_CREATED_GND~I_combout\ $end
$var wire 1 Y \~QUARTUS_CREATED_UNVM~~busy\ $end
$var wire 1 Z \~QUARTUS_CREATED_ADC1~~eoc\ $end
$var wire 1 [ \~QUARTUS_CREATED_ADC2~~eoc\ $end
$var wire 1 \ \busLed[0]~output_o\ $end
$var wire 1 ] \busLed[1]~output_o\ $end
$var wire 1 ^ \busLed[2]~output_o\ $end
$var wire 1 _ \busLed[3]~output_o\ $end
$var wire 1 ` \busLed[4]~output_o\ $end
$var wire 1 a \busLed[5]~output_o\ $end
$var wire 1 b \busLed[6]~output_o\ $end
$var wire 1 c \led~output_o\ $end
$var wire 1 d \EnClk~output_o\ $end
$var wire 1 e \Clk~input_o\ $end
$var wire 1 f \Clk~inputclkctrl_outclk\ $end
$var wire 1 g \Rst~input_o\ $end
$var wire 1 h \Count100M~0_combout\ $end
$var wire 1 i \Count100M~q\ $end
$var wire 1 j \EnHz~0_combout\ $end
$var wire 1 k \EnHz~feeder_combout\ $end
$var wire 1 l \EnHz~q\ $end
$var wire 1 m \EnHz~clkctrl_outclk\ $end
$var wire 1 n \but~input_o\ $end
$var wire 1 o \input~feeder_combout\ $end
$var wire 1 p \input~q\ $end
$var wire 1 q \rising_edge_det~0_combout\ $end
$var wire 1 r \rising_edge_det~q\ $end
$var wire 1 s \XY[1]~input_o\ $end
$var wire 1 t \pres_state.S1~0_combout\ $end
$var wire 1 u \XY[0]~input_o\ $end
$var wire 1 v \Equal0~0_combout\ $end
$var wire 1 w \Selector6~0_combout\ $end
$var wire 1 x \pres_state.SE1~q\ $end
$var wire 1 y \Selector7~0_combout\ $end
$var wire 1 z \Selector2~0_combout\ $end
$var wire 1 { \Selector2~1_combout\ $end
$var wire 1 | \pres_state.S2~q\ $end
$var wire 1 } \Selector7~1_combout\ $end
$var wire 1 ~ \pres_state.SE2~q\ $end
$var wire 1 !! \Selector0~0_combout\ $end
$var wire 1 "! \Selector0~1_combout\ $end
$var wire 1 #! \pres_state.S0~q\ $end
$var wire 1 $! \pres_state.S1~1_combout\ $end
$var wire 1 %! \pres_state.S1~q\ $end
$var wire 1 &! \Selector5~0_combout\ $end
$var wire 1 '! \Selector5~1_combout\ $end
$var wire 1 (! \pres_state.SE0~q\ $end
$var wire 1 )! \WideOr18~0_combout\ $end
$var wire 1 *! \WideOr16~0_combout\ $end
$var wire 1 +! \WideOr16~combout\ $end
$var wire 1 ,! \ALT_INV_Rst~input_o\ $end
$var wire 1 -! \ALT_INV_WideOr16~combout\ $end
$upscope $end
$upscope $end
$enddefinitions $end
#0
$dumpvars
0(
0)
0*
0+
0,
0/
10
x1
12
13
14
15
16
17
08
09
0:
0D
0E
0X
zY
zZ
z[
0\
0]
0^
0_
0`
0a
0b
0c
0d
0e
0f
0g
1h
0i
0j
0k
0l
0m
0n
0o
0p
0q
0r
0s
0t
0u
0v
0w
0x
0y
0z
0{
0|
0}
0~
0!!
0"!
0#!
0$!
0%!
0&!
0'!
0(!
0)!
0*!
1+!
1,!
0-!
0-
0.
0;
0<
0=
0>
0?
0@
0A
0B
0C
1T
1U
1V
0W
1P
1Q
1R
0S
0F
0G
0H
0I
0J
0K
0L
0M
0N
0O
0!
0"
0#
0$
0%
0&
0'
$end
#5000
1)
19
1e
1W
1f
1i
0h
1j
1k
#10000
0)
09
0e
0W
0f
#15000
1)
19
1e
1W
1f
0i
1l
1S
1d
1h
0j
1E
0k
1*
1m
#20000
0)
09
0e
0W
0f
#25000
1)
19
1e
1W
1f
1i
0l
0S
0d
0h
1j
0E
1k
0*
0m
#30000
0)
09
0e
0W
0f
#35000
1)
19
1e
1W
1f
0i
1l
1S
1d
1h
0j
1E
0k
1*
1m
#40000
0)
09
0e
0W
0f
#45000
1)
19
1e
1W
1f
1i
0l
0S
0d
0h
1j
0E
1k
0*
0m
#50000
0)
09
0e
0W
0f
#55000
1)
19
1e
1W
1f
0i
1l
1S
1d
1h
0j
1E
0k
1*
1m
#60000
0)
09
0e
0W
0f
#65000
1)
19
1e
1W
1f
1i
0l
0S
0d
0h
1j
0E
1k
0*
0m
#70000
0)
09
0e
0W
0f
#75000
1)
19
1e
1W
1f
0i
1l
1S
1d
1h
0j
1E
0k
1*
1m
#80000
0)
09
0e
0W
0f
#85000
1)
19
1e
1W
1f
1i
0l
0S
0d
0h
1j
0E
1k
0*
0m
#90000
0)
09
0e
0W
0f
#95000
1)
19
1e
1W
1f
0i
1l
1S
1d
1h
0j
1E
0k
1*
1m
#100000
0)
09
0e
0W
0f
#105000
1)
19
1e
1W
1f
1i
0l
0S
0d
0h
1j
0E
1k
0*
0m
#110000
0)
09
0e
0W
0f
#115000
1)
19
1e
1W
1f
0i
1l
1S
1d
1h
0j
1E
0k
1*
1m
#120000
0)
09
0e
0W
0f
#125000
1)
19
1e
1W
1f
1i
0l
0S
0d
0h
1j
0E
1k
0*
0m
#130000
0)
09
0e
0W
0f
#135000
1)
19
1e
1W
1f
0i
1l
1S
1d
1h
0j
1E
0k
1*
1m
#140000
0)
09
0e
0W
0f
#145000
1)
19
1e
1W
1f
1i
0l
0S
0d
0h
1j
0E
1k
0*
0m
#150000
0)
09
0e
0W
0f
#155000
1)
19
1e
1W
1f
0i
1l
1S
1d
1h
0j
1E
0k
1*
1m
#160000
0)
09
0e
0W
0f
#165000
1)
19
1e
1W
1f
1i
0l
0S
0d
0h
1j
0E
1k
0*
0m
#170000
0)
09
0e
0W
0f
#175000
1)
19
1e
1W
1f
0i
1l
1S
1d
1h
0j
1E
0k
1*
1m
#180000
0)
1(
09
1:
1n
0e
0W
1o
1q
0f
#185000
1)
19
1e
1W
1f
1i
0l
0S
0d
0h
1j
0E
1k
0*
0m
#190000
0)
09
0e
0W
0f
#195000
1)
19
1e
1W
1f
0i
1l
1S
1d
1h
0j
1E
0k
1*
1m
1p
1r
1c
1"!
1'!
0q
1D
1+
#200000
0)
09
0e
0W
0f
#205000
1)
19
1e
1W
1f
1i
0l
1#!
1(!
0S
0d
1!!
1&!
0h
1j
0E
1k
0'!
0"!
0*
0m
#210000
0)
09
0e
0W
0f
#215000
1)
19
1e
1W
1f
0i
1l
1S
1d
1h
0j
1E
0k
1*
1m
0r
0c
1"!
1'!
0D
0+
#220000
0)
09
0e
0W
0f
#225000
1)
19
1e
1W
1f
1i
0l
0S
0d
0h
1j
0E
1k
0*
0m
#230000
0)
09
0e
0W
0f
#235000
1)
19
1e
1W
1f
0i
1l
1S
1d
1h
0j
1E
0k
1*
1m
#240000
0)
09
0e
0W
0f
#245000
1)
19
1e
1W
1f
1i
0l
0S
0d
0h
1j
0E
1k
0*
0m
#250000
0)
09
0e
0W
0f
#255000
1)
19
1e
1W
1f
0i
1l
1S
1d
1h
0j
1E
0k
1*
1m
#260000
0)
09
0e
0W
0f
#265000
1)
19
1e
1W
1f
1i
0l
0S
0d
0h
1j
0E
1k
0*
0m
#270000
0)
09
0e
0W
0f
#275000
1)
19
1e
1W
1f
0i
1l
1S
1d
1h
0j
1E
0k
1*
1m
#280000
0)
0(
09
0:
0n
0e
0W
0o
0f
#285000
1)
19
1e
1W
1f
1i
0l
0S
0d
0h
1j
0E
1k
0*
0m
#290000
0)
09
0e
0W
0f
#295000
1)
19
1e
1W
1f
0i
1l
1S
1d
1h
0j
1E
0k
1*
1m
0p
#300000
0)
09
0e
0W
0f
#305000
1)
19
1e
1W
1f
1i
0l
0S
0d
0h
1j
0E
1k
0*
0m
#310000
0)
09
0e
0W
0f
#315000
1)
19
1e
1W
1f
0i
1l
1S
1d
1h
0j
1E
0k
1*
1m
#320000
0)
09
0e
0W
0f
#325000
1)
19
1e
1W
1f
1i
0l
0S
0d
0h
1j
0E
1k
0*
0m
#330000
0)
09
0e
0W
0f
#335000
1)
19
1e
1W
1f
0i
1l
1S
1d
1h
0j
1E
0k
1*
1m
#340000
0)
09
0e
0W
0f
#345000
1)
19
1e
1W
1f
1i
0l
0S
0d
0h
1j
0E
1k
0*
0m
#350000
0)
09
0e
0W
0f
#355000
1)
19
1e
1W
1f
0i
1l
1S
1d
1h
0j
1E
0k
1*
1m
#360000
0)
09
0e
0W
0f
#365000
1)
19
1e
1W
1f
1i
0l
0S
0d
0h
1j
0E
1k
0*
0m
#370000
0)
09
0e
0W
0f
#375000
1)
19
1e
1W
1f
0i
1l
1S
1d
1h
0j
1E
0k
1*
1m
#380000
0)
09
0e
0W
0f
#385000
1)
19
1e
1W
1f
1i
0l
0S
0d
0h
1j
0E
1k
0*
0m
#390000
0)
09
0e
0W
0f
#395000
1)
19
1e
1W
1f
0i
1l
1S
1d
1h
0j
1E
0k
1*
1m
#400000
0)
09
0e
0W
0f
#405000
1)
19
1e
1W
1f
1i
0l
0S
0d
0h
1j
0E
1k
0*
0m
#410000
0)
09
0e
0W
0f
#415000
1)
19
1e
1W
1f
0i
1l
1S
1d
1h
0j
1E
0k
1*
1m
#420000
0)
09
0e
0W
0f
#425000
1)
19
1e
1W
1f
1i
0l
0S
0d
0h
1j
0E
1k
0*
0m
#430000
0)
09
0e
0W
0f
#435000
1)
19
1e
1W
1f
0i
1l
1S
1d
1h
0j
1E
0k
1*
1m
#440000
0)
09
0e
0W
0f
#445000
1)
19
1e
1W
1f
1i
0l
0S
0d
0h
1j
0E
1k
0*
0m
#450000
0)
09
0e
0W
0f
#455000
1)
19
1e
1W
1f
0i
1l
1S
1d
1h
0j
1E
0k
1*
1m
#460000
0)
09
0e
0W
0f
#465000
1)
19
1e
1W
1f
1i
0l
0S
0d
0h
1j
0E
1k
0*
0m
#470000
0)
09
0e
0W
0f
#475000
1)
19
1e
1W
1f
0i
1l
1S
1d
1h
0j
1E
0k
1*
1m
#480000
0)
09
0e
0W
0f
#485000
1)
19
1e
1W
1f
1i
0l
0S
0d
0h
1j
0E
1k
0*
0m
#490000
0)
09
0e
0W
0f
#495000
1)
19
1e
1W
1f
0i
1l
1S
1d
1h
0j
1E
0k
1*
1m
#500000
0)
09
0e
0W
0f
#505000
1)
19
1e
1W
1f
1i
0l
0S
0d
0h
1j
0E
1k
0*
0m
#510000
0)
09
0e
0W
0f
#515000
1)
19
1e
1W
1f
0i
1l
1S
1d
1h
0j
1E
0k
1*
1m
#520000
0)
09
0e
0W
0f
#525000
1)
19
1e
1W
1f
1i
0l
0S
0d
0h
1j
0E
1k
0*
0m
#530000
0)
09
0e
0W
0f
#535000
1)
19
1e
1W
1f
0i
1l
1S
1d
1h
0j
1E
0k
1*
1m
#540000
0)
09
0e
0W
0f
#545000
1)
19
1e
1W
1f
1i
0l
0S
0d
0h
1j
0E
1k
0*
0m
#550000
0)
09
0e
0W
0f
#555000
1)
19
1e
1W
1f
0i
1l
1S
1d
1h
0j
1E
0k
1*
1m
#560000
0)
09
0e
0W
0f
#565000
1)
19
1e
1W
1f
1i
0l
0S
0d
0h
1j
0E
1k
0*
0m
#570000
0)
09
0e
0W
0f
#575000
1)
19
1e
1W
1f
0i
1l
1S
1d
1h
0j
1E
0k
1*
1m
#580000
0)
09
0e
0W
0f
#585000
1)
19
1e
1W
1f
1i
0l
0S
0d
0h
1j
0E
1k
0*
0m
#590000
0)
09
0e
0W
0f
#595000
1)
19
1e
1W
1f
0i
1l
1S
1d
1h
0j
1E
0k
1*
1m
#600000
0)
09
0e
0W
0f
#605000
1)
19
1e
1W
1f
1i
0l
0S
0d
0h
1j
0E
1k
0*
0m
#610000
0)
09
0e
0W
0f
#615000
1)
19
1e
1W
1f
0i
1l
1S
1d
1h
0j
1E
0k
1*
1m
#620000
0)
09
0e
0W
0f
#625000
1)
19
1e
1W
1f
1i
0l
0S
0d
0h
1j
0E
1k
0*
0m
#630000
0)
09
0e
0W
0f
#635000
1)
19
1e
1W
1f
0i
1l
1S
1d
1h
0j
1E
0k
1*
1m
#640000
0)
09
0e
0W
0f
#645000
1)
19
1e
1W
1f
1i
0l
0S
0d
0h
1j
0E
1k
0*
0m
#650000
0)
09
0e
0W
0f
#655000
1)
19
1e
1W
1f
0i
1l
1S
1d
1h
0j
1E
0k
1*
1m
#660000
0)
09
0e
0W
0f
#665000
1)
19
1e
1W
1f
1i
0l
0S
0d
0h
1j
0E
1k
0*
0m
#670000
0)
09
0e
0W
0f
#675000
1)
19
1e
1W
1f
0i
1l
1S
1d
1h
0j
1E
0k
1*
1m
#680000
0)
09
0e
0W
0f
#685000
1)
19
1e
1W
1f
1i
0l
0S
0d
0h
1j
0E
1k
0*
0m
#690000
0)
09
0e
0W
0f
#695000
1)
19
1e
1W
1f
0i
1l
1S
1d
1h
0j
1E
0k
1*
1m
#700000
0)
09
0e
0W
0f
#705000
1)
19
1e
1W
1f
1i
0l
0S
0d
0h
1j
0E
1k
0*
0m
#710000
0)
09
0e
0W
0f
#715000
1)
19
1e
1W
1f
0i
1l
1S
1d
1h
0j
1E
0k
1*
1m
#720000
0)
09
0e
0W
0f
#725000
1)
19
1e
1W
1f
1i
0l
0S
0d
0h
1j
0E
1k
0*
0m
#730000
0)
09
0e
0W
0f
#735000
1)
19
1e
1W
1f
0i
1l
1S
1d
1h
0j
1E
0k
1*
1m
#740000
0)
09
0e
0W
0f
#745000
1)
19
1e
1W
1f
1i
0l
0S
0d
0h
1j
0E
1k
0*
0m
#750000
0)
09
0e
0W
0f
#755000
1)
19
1e
1W
1f
0i
1l
1S
1d
1h
0j
1E
0k
1*
1m
#760000
0)
09
0e
0W
0f
#765000
1)
19
1e
1W
1f
1i
0l
0S
0d
0h
1j
0E
1k
0*
0m
#770000
0)
09
0e
0W
0f
#775000
1)
19
1e
1W
1f
0i
1l
1S
1d
1h
0j
1E
0k
1*
1m
#780000
0)
09
0e
0W
0f
#785000
1)
19
1e
1W
1f
1i
0l
0S
0d
0h
1j
0E
1k
0*
0m
#790000
0)
09
0e
0W
0f
#795000
1)
19
1e
1W
1f
0i
1l
1S
1d
1h
0j
1E
0k
1*
1m
#800000
0)
09
0e
0W
0f
#805000
1)
19
1e
1W
1f
1i
0l
0S
0d
0h
1j
0E
1k
0*
0m
#810000
0)
09
0e
0W
0f
#815000
1)
19
1e
1W
1f
0i
1l
1S
1d
1h
0j
1E
0k
1*
1m
#820000
0)
09
0e
0W
0f
#825000
1)
19
1e
1W
1f
1i
0l
0S
0d
0h
1j
0E
1k
0*
0m
#830000
0)
09
0e
0W
0f
#835000
1)
19
1e
1W
1f
0i
1l
1S
1d
1h
0j
1E
0k
1*
1m
#840000
0)
09
0e
0W
0f
#845000
1)
19
1e
1W
1f
1i
0l
0S
0d
0h
1j
0E
1k
0*
0m
#850000
0)
09
0e
0W
0f
#855000
1)
19
1e
1W
1f
0i
1l
1S
1d
1h
0j
1E
0k
1*
1m
#860000
0)
09
0e
0W
0f
#865000
1)
19
1e
1W
1f
1i
0l
0S
0d
0h
1j
0E
1k
0*
0m
#870000
0)
09
0e
0W
0f
#875000
1)
19
1e
1W
1f
0i
1l
1S
1d
1h
0j
1E
0k
1*
1m
#880000
0)
09
0e
0W
0f
#885000
1)
19
1e
1W
1f
1i
0l
0S
0d
0h
1j
0E
1k
0*
0m
#890000
0)
09
0e
0W
0f
#895000
1)
19
1e
1W
1f
0i
1l
1S
1d
1h
0j
1E
0k
1*
1m
#900000
0)
09
0e
0W
0f
#905000
1)
19
1e
1W
1f
1i
0l
0S
0d
0h
1j
0E
1k
0*
0m
#910000
0)
09
0e
0W
0f
#915000
1)
19
1e
1W
1f
0i
1l
1S
1d
1h
0j
1E
0k
1*
1m
#920000
0)
09
0e
0W
0f
#925000
1)
19
1e
1W
1f
1i
0l
0S
0d
0h
1j
0E
1k
0*
0m
#930000
0)
09
0e
0W
0f
#935000
1)
19
1e
1W
1f
0i
1l
1S
1d
1h
0j
1E
0k
1*
1m
#940000
0)
09
0e
0W
0f
#945000
1)
19
1e
1W
1f
1i
0l
0S
0d
0h
1j
0E
1k
0*
0m
#950000
0)
09
0e
0W
0f
#955000
1)
19
1e
1W
1f
0i
1l
1S
1d
1h
0j
1E
0k
1*
1m
#960000
0)
09
0e
0W
0f
#965000
1)
19
1e
1W
1f
1i
0l
0S
0d
0h
1j
0E
1k
0*
0m
#970000
0)
09
0e
0W
0f
#975000
1)
19
1e
1W
1f
0i
1l
1S
1d
1h
0j
1E
0k
1*
1m
#980000
0)
09
0e
0W
0f
#985000
1)
19
1e
1W
1f
1i
0l
0S
0d
0h
1j
0E
1k
0*
0m
#990000
0)
09
0e
0W
0f
#995000
1)
19
1e
1W
1f
0i
1l
1S
1d
1h
0j
1E
0k
1*
1m
