UART/RxModule/simulation/qsim/RxUart.msim.vcd
$comment
	File created using the following command:
		vcd file RxUart.msim.vcd -direction
$end
$date
	Mon Sep 12 00:04:31 2022
$end
$version
	ModelSim Version 10.5b
$end
$timescale
	1ps
$end

$scope module RxUart_vlg_vec_tst $end
$var reg 1 ! Clk $end
$var reg 1 " Din $end
$var reg 1 # Rst $end
$var reg 3 $ select [2:0] $end
$var wire 1 % DivClk $end
$var wire 1 & Reading $end
$var wire 1 ' SampleClock $end
$var wire 1 ( dout [9] $end
$var wire 1 ) dout [8] $end
$var wire 1 * dout [7] $end
$var wire 1 + dout [6] $end
$var wire 1 , dout [5] $end
$var wire 1 - dout [4] $end
$var wire 1 . dout [3] $end
$var wire 1 / dout [2] $end
$var wire 1 0 dout [1] $end
$var wire 1 1 dout [0] $end

$scope module i1 $end
$var wire 1 2 gnd $end
$var wire 1 3 vcc $end
$var wire 1 4 unknown $end
$var tri1 1 5 devclrn $end
$var tri1 1 6 devpor $end
$var tri1 1 7 devoe $end
$var wire 1 8 ~QUARTUS_CREATED_GND~I_combout $end
$var wire 1 9 ~QUARTUS_CREATED_UNVM~~busy $end
$var wire 1 : ~QUARTUS_CREATED_ADC1~~eoc $end
$var wire 1 ; ~QUARTUS_CREATED_ADC2~~eoc $end
$var wire 1 < dout[0]~output_o $end
$var wire 1 = dout[1]~output_o $end
$var wire 1 > dout[2]~output_o $end
$var wire 1 ? dout[3]~output_o $end
$var wire 1 @ dout[4]~output_o $end
$var wire 1 A dout[5]~output_o $end
$var wire 1 B dout[6]~output_o $end
$var wire 1 C dout[7]~output_o $end
$var wire 1 D dout[8]~output_o $end
$var wire 1 E dout[9]~output_o $end
$var wire 1 F DivClk~output_o $end
$var wire 1 G SampleClock~output_o $end
$var wire 1 H Reading~output_o $end
$var wire 1 I Clk~input_o $end
$var wire 1 J Clk~inputclkctrl_outclk $end
$var wire 1 K Rst~input_o $end
$var wire 1 L Din~input_o $end
$var wire 1 M SIPO|data~10_combout $end
$var wire 1 N RxClock|out~clkctrl_outclk $end
$var wire 1 O RCounter|count[0]~32_combout $end
$var wire 1 P RCounter|count[0]~33 $end
$var wire 1 Q RCounter|count[1]~34_combout $end
$var wire 1 R RCounter|count[1]~35 $end
$var wire 1 S RCounter|count[2]~36_combout $end
$var wire 1 T RCounter|count[2]~37 $end
$var wire 1 U RCounter|count[3]~38_combout $end
$var wire 1 V RCounter|count[3]~39 $end
$var wire 1 W RCounter|count[4]~40_combout $end
$var wire 1 X RCounter|count[4]~41 $end
$var wire 1 Y RCounter|count[5]~42_combout $end
$var wire 1 Z RCounter|count[5]~43 $end
$var wire 1 [ RCounter|count[6]~44_combout $end
$var wire 1 \ RCounter|count[6]~45 $end
$var wire 1 ] RCounter|count[7]~46_combout $end
$var wire 1 ^ RCounter|count[7]~47 $end
$var wire 1 _ RCounter|count[8]~48_combout $end
$var wire 1 ` RCounter|count[8]~49 $end
$var wire 1 a RCounter|count[9]~50_combout $end
$var wire 1 b RCounter|count[9]~51 $end
$var wire 1 c RCounter|count[10]~52_combout $end
$var wire 1 d RCounter|count[10]~53 $end
$var wire 1 e RCounter|count[11]~54_combout $end
$var wire 1 f RCounter|count[11]~55 $end
$var wire 1 g RCounter|count[12]~56_combout $end
$var wire 1 h RCounter|count[12]~57 $end
$var wire 1 i RCounter|count[13]~58_combout $end
$var wire 1 j RCounter|count[13]~59 $end
$var wire 1 k RCounter|count[14]~60_combout $end
$var wire 1 l RCounter|count[14]~61 $end
$var wire 1 m RCounter|count[15]~62_combout $end
$var wire 1 n RCounter|count[15]~63 $end
$var wire 1 o RCounter|count[16]~64_combout $end
$var wire 1 p RCounter|count[16]~65 $end
$var wire 1 q RCounter|count[17]~66_combout $end
$var wire 1 r RCounter|count[17]~67 $end
$var wire 1 s RCounter|count[18]~68_combout $end
$var wire 1 t RCounter|count[18]~69 $end
$var wire 1 u RCounter|count[19]~70_combout $end
$var wire 1 v RCounter|count[19]~71 $end
$var wire 1 w RCounter|count[20]~72_combout $end
$var wire 1 x RCounter|count[20]~73 $end
$var wire 1 y RCounter|count[21]~74_combout $end
$var wire 1 z RCounter|count[21]~75 $end
$var wire 1 { RCounter|count[22]~76_combout $end
$var wire 1 | RCounter|count[22]~77 $end
$var wire 1 } RCounter|count[23]~78_combout $end
$var wire 1 ~ RCounter|count[23]~79 $end
$var wire 1 !! RCounter|count[24]~80_combout $end
$var wire 1 "! RCounter|count[24]~81 $end
$var wire 1 #! RCounter|count[25]~82_combout $end
$var wire 1 $! RCounter|count[25]~83 $end
$var wire 1 %! RCounter|count[26]~84_combout $end
$var wire 1 &! RCounter|count[26]~85 $end
$var wire 1 '! RCounter|count[27]~86_combout $end
$var wire 1 (! RCounter|count[27]~87 $end
$var wire 1 )! RCounter|count[28]~88_combout $end
$var wire 1 *! RCounter|count[28]~89 $end
$var wire 1 +! RCounter|count[29]~90_combout $end
$var wire 1 ,! RCounter|count[29]~91 $end
$var wire 1 -! RCounter|count[30]~92_combout $end
$var wire 1 .! RCounter|count[30]~93 $end
$var wire 1 /! RCounter|count[31]~94_combout $end
$var wire 1 0! RCounter|LessThan0~7_combout $end
$var wire 1 1! RCounter|LessThan0~6_combout $end
$var wire 1 2! RCounter|out~0_combout $end
$var wire 1 3! RCounter|LessThan0~0_combout $end
$var wire 1 4! RCounter|LessThan0~2_combout $end
$var wire 1 5! RCounter|LessThan0~4_combout $end
$var wire 1 6! RCounter|LessThan0~1_combout $end
$var wire 1 7! RCounter|LessThan0~3_combout $end
$var wire 1 8! RCounter|LessThan0~5_combout $end
$var wire 1 9! RCounter|out~1_combout $end
$var wire 1 :! RCounter|out~2_combout $end
$var wire 1 ;! RCounter|out~3_combout $end
$var wire 1 <! RCounter|out~q $end
$var wire 1 =! FSM|CurrentState~6_combout $end
$var wire 1 >! FSM|CurrentState.Display~feeder_combout $end
$var wire 1 ?! FSM|CurrentState.Display~q $end
$var wire 1 @! FSM|CurrentState~5_combout $end
$var wire 1 A! FSM|CurrentState.Idle~q $end
$var wire 1 B! FSM|Selector1~0_combout $end
$var wire 1 C! FSM|CurrentState.Read~q $end
$var wire 1 D! select[2]~input_o $end
$var wire 1 E! select[0]~input_o $end
$var wire 1 F! select[1]~input_o $end
$var wire 1 G! RxClock|Decoder0~0_combout $end
$var wire 1 H! RxClock|Decoder0~1_combout $end
$var wire 1 I! RxClock|Decoder1~0_combout $end
$var wire 1 J! RxClock|Time~0_combout $end
$var wire 1 K! RxClock|Decoder0~2_combout $end
$var wire 1 L! RxClock|Decoder1~1_combout $end
$var wire 1 M! RxClock|WideOr0~0_combout $end
$var wire 1 N! RxClock|count[7]~0_combout $end
$var wire 1 O! RxClock|count[7]~feeder_combout $end
$var wire 1 P! RxClock|Time~1_combout $end
$var wire 1 Q! RxClock|count[6]~1_combout $end
$var wire 1 R! RxClock|Time~2_combout $end
$var wire 1 S! RxClock|WideOr2~0_combout $end
$var wire 1 T! RxClock|WideOr3~0_combout $end
$var wire 1 U! RxClock|count[1]~2_combout $end
$var wire 1 V! RxClock|Add0~0_combout $end
$var wire 1 W! RxClock|count~16_combout $end
$var wire 1 X! RxClock|Add0~1 $end
$var wire 1 Y! RxClock|Add0~2_combout $end
$var wire 1 Z! RxClock|count[3]~5_combout $end
$var wire 1 [! RxClock|Add0~3 $end
$var wire 1 \! RxClock|Add0~4_combout $end
$var wire 1 ]! RxClock|count~15_combout $end
$var wire 1 ^! RxClock|Add0~5 $end
$var wire 1 _! RxClock|Add0~6_combout $end
$var wire 1 `! RxClock|Decoder2~0_combout $end
$var wire 1 a! RxClock|count~14_combout $end
$var wire 1 b! RxClock|Add0~7 $end
$var wire 1 c! RxClock|Add0~8_combout $end
$var wire 1 d! RxClock|count~13_combout $end
$var wire 1 e! RxClock|Add0~9 $end
$var wire 1 f! RxClock|Add0~10_combout $end
$var wire 1 g! RxClock|WideOr1~0_combout $end
$var wire 1 h! RxClock|count~12_combout $end
$var wire 1 i! RxClock|Add0~11 $end
$var wire 1 j! RxClock|Add0~12_combout $end
$var wire 1 k! RxClock|Add0~13 $end
$var wire 1 l! RxClock|Add0~14_combout $end
$var wire 1 m! RxClock|Add0~15 $end
$var wire 1 n! RxClock|Add0~16_combout $end
$var wire 1 o! RxClock|count~11_combout $end
$var wire 1 p! RxClock|Add0~17 $end
$var wire 1 q! RxClock|Add0~18_combout $end
$var wire 1 r! RxClock|count~10_combout $end
$var wire 1 s! RxClock|Add0~19 $end
$var wire 1 t! RxClock|Add0~20_combout $end
$var wire 1 u! RxClock|count~9_combout $end
$var wire 1 v! RxClock|Add0~21 $end
$var wire 1 w! RxClock|Add0~22_combout $end
$var wire 1 x! RxClock|count~8_combout $end
$var wire 1 y! RxClock|Add0~23 $end
$var wire 1 z! RxClock|Add0~24_combout $end
$var wire 1 {! RxClock|count~7_combout $end
$var wire 1 |! RxClock|Add0~25 $end
$var wire 1 }! RxClock|Add0~26_combout $end
$var wire 1 ~! RxClock|count~6_combout $end
$var wire 1 !" RxClock|Add0~27 $end
$var wire 1 "" RxClock|Add0~28_combout $end
$var wire 1 #" RxClock|count~4_combout $end
$var wire 1 $" RxClock|Add0~29 $end
$var wire 1 %" RxClock|Add0~30_combout $end
$var wire 1 &" RxClock|count~17_combout $end
$var wire 1 '" RxClock|Add0~31 $end
$var wire 1 (" RxClock|Add0~32_combout $end
$var wire 1 )" RxClock|count~18_combout $end
$var wire 1 *" RxClock|Add0~33 $end
$var wire 1 +" RxClock|Add0~34_combout $end
$var wire 1 ," RxClock|count~19_combout $end
$var wire 1 -" RxClock|Add0~35 $end
$var wire 1 ." RxClock|Add0~36_combout $end
$var wire 1 /" RxClock|count~20_combout $end
$var wire 1 0" RxClock|Add0~37 $end
$var wire 1 1" RxClock|Add0~38_combout $end
$var wire 1 2" RxClock|count~21_combout $end
$var wire 1 3" RxClock|Add0~39 $end
$var wire 1 4" RxClock|Add0~40_combout $end
$var wire 1 5" RxClock|count~22_combout $end
$var wire 1 6" RxClock|Add0~41 $end
$var wire 1 7" RxClock|Add0~42_combout $end
$var wire 1 8" RxClock|count~23_combout $end
$var wire 1 9" RxClock|Add0~43 $end
$var wire 1 :" RxClock|Add0~44_combout $end
$var wire 1 ;" RxClock|count~24_combout $end
$var wire 1 <" RxClock|Add0~45 $end
$var wire 1 =" RxClock|Add0~46_combout $end
$var wire 1 >" RxClock|count~25_combout $end
$var wire 1 ?" RxClock|Add0~47 $end
$var wire 1 @" RxClock|Add0~48_combout $end
$var wire 1 A" RxClock|count~26_combout $end
$var wire 1 B" RxClock|Add0~49 $end
$var wire 1 C" RxClock|Add0~50_combout $end
$var wire 1 D" RxClock|count~27_combout $end
$var wire 1 E" RxClock|Add0~51 $end
$var wire 1 F" RxClock|Add0~52_combout $end
$var wire 1 G" RxClock|count~28_combout $end
$var wire 1 H" RxClock|Add0~53 $end
$var wire 1 I" RxClock|Add0~54_combout $end
$var wire 1 J" RxClock|count~29_combout $end
$var wire 1 K" RxClock|Add0~55 $end
$var wire 1 L" RxClock|Add0~56_combout $end
$var wire 1 M" RxClock|count~30_combout $end
$var wire 1 N" RxClock|Add0~57 $end
$var wire 1 O" RxClock|Add0~58_combout $end
$var wire 1 P" RxClock|count~31_combout $end
$var wire 1 Q" RxClock|Add0~59 $end
$var wire 1 R" RxClock|Add0~60_combout $end
$var wire 1 S" RxClock|count~32_combout $end
$var wire 1 T" RxClock|Add0~61 $end
$var wire 1 U" RxClock|Add0~62_combout $end
$var wire 1 V" RxClock|count~3_combout $end
$var wire 1 W" RxClock|LessThan0~31_combout $end
$var wire 1 X" RxClock|LessThan0~29_combout $end
$var wire 1 Y" RxClock|LessThan0~32_combout $end
$var wire 1 Z" RxClock|LessThan0~30_combout $end
$var wire 1 [" RxClock|LessThan0~33_combout $end
$var wire 1 \" RxClock|LessThan0~0_combout $end
$var wire 1 ]" RxClock|LessThan0~2_cout $end
$var wire 1 ^" RxClock|LessThan0~4_cout $end
$var wire 1 _" RxClock|LessThan0~6_cout $end
$var wire 1 `" RxClock|LessThan0~8_cout $end
$var wire 1 a" RxClock|LessThan0~10_cout $end
$var wire 1 b" RxClock|LessThan0~12_cout $end
$var wire 1 c" RxClock|LessThan0~14_cout $end
$var wire 1 d" RxClock|LessThan0~16_cout $end
$var wire 1 e" RxClock|LessThan0~18_cout $end
$var wire 1 f" RxClock|LessThan0~20_cout $end
$var wire 1 g" RxClock|LessThan0~22_cout $end
$var wire 1 h" RxClock|LessThan0~24_cout $end
$var wire 1 i" RxClock|LessThan0~26_cout $end
$var wire 1 j" RxClock|LessThan0~27_combout $end
$var wire 1 k" RxClock|LessThan0~34_combout $end
$var wire 1 l" RxClock|out~0_combout $end
$var wire 1 m" RxClock|out~q $end
$var wire 1 n" SIPO|data[7]~1_combout $end
$var wire 1 o" SIPO|data~9_combout $end
$var wire 1 p" SIPO|data~8_combout $end
$var wire 1 q" SIPO|data~7_combout $end
$var wire 1 r" SIPO|data~6_combout $end
$var wire 1 s" SIPO|data~5_combout $end
$var wire 1 t" SIPO|data~4_combout $end
$var wire 1 u" SIPO|data~3_combout $end
$var wire 1 v" SIPO|data~2_combout $end
$var wire 1 w" SIPO|data~0_combout $end
$var wire 1 x" SIPO|dataout[0]~feeder_combout $end
$var wire 1 y" SIPO|dataout[1]~feeder_combout $end
$var wire 1 z" SIPO|dataout[2]~feeder_combout $end
$var wire 1 {" SIPO|dataout[3]~feeder_combout $end
$var wire 1 |" SIPO|dataout[4]~feeder_combout $end
$var wire 1 }" SIPO|dataout[5]~feeder_combout $end
$var wire 1 ~" SIPO|dataout[6]~feeder_combout $end
$var wire 1 !# SIPO|dataout[7]~feeder_combout $end
$var wire 1 "# SIPO|dataout[8]~feeder_combout $end
$var wire 1 ## SIPO|dataout[9]~feeder_combout $end
$var wire 1 $# RxSample|count[0]~32_combout $end
$var wire 1 %# RxSample|LessThan0~31_combout $end
$var wire 1 &# RxSample|LessThan0~32_combout $end
$var wire 1 '# RxSample|LessThan0~30_combout $end
$var wire 1 (# RxSample|LessThan0~0_combout $end
$var wire 1 )# RxSample|LessThan0~2_cout $end
$var wire 1 *# RxSample|LessThan0~4_cout $end
$var wire 1 +# RxSample|LessThan0~6_cout $end
$var wire 1 ,# RxSample|LessThan0~8_cout $end
$var wire 1 -# RxSample|LessThan0~10_cout $end
$var wire 1 .# RxSample|LessThan0~12_cout $end
$var wire 1 /# RxSample|LessThan0~14_cout $end
$var wire 1 0# RxSample|LessThan0~16_cout $end
$var wire 1 1# RxSample|LessThan0~18_cout $end
$var wire 1 2# RxSample|LessThan0~20_cout $end
$var wire 1 3# RxSample|LessThan0~22_cout $end
$var wire 1 4# RxSample|LessThan0~24_cout $end
$var wire 1 5# RxSample|LessThan0~26_cout $end
$var wire 1 6# RxSample|LessThan0~27_combout $end
$var wire 1 7# RxSample|LessThan0~29_combout $end
$var wire 1 8# RxSample|LessThan0~33_combout $end
$var wire 1 9# RxSample|count[5]~96_combout $end
$var wire 1 :# RxSample|count[0]~33 $end
$var wire 1 ;# RxSample|count[1]~34_combout $end
$var wire 1 <# RxSample|count[1]~35 $end
$var wire 1 =# RxSample|count[2]~36_combout $end
$var wire 1 ># RxSample|count[2]~37 $end
$var wire 1 ?# RxSample|count[3]~38_combout $end
$var wire 1 @# RxSample|count[3]~39 $end
$var wire 1 A# RxSample|count[4]~40_combout $end
$var wire 1 B# RxSample|count[4]~41 $end
$var wire 1 C# RxSample|count[5]~42_combout $end
$var wire 1 D# RxSample|count[5]~43 $end
$var wire 1 E# RxSample|count[6]~44_combout $end
$var wire 1 F# RxSample|count[6]~45 $end
$var wire 1 G# RxSample|count[7]~46_combout $end
$var wire 1 H# RxSample|count[7]~47 $end
$var wire 1 I# RxSample|count[8]~48_combout $end
$var wire 1 J# RxSample|count[8]~49 $end
$var wire 1 K# RxSample|count[9]~50_combout $end
$var wire 1 L# RxSample|count[9]~51 $end
$var wire 1 M# RxSample|count[10]~52_combout $end
$var wire 1 N# RxSample|count[10]~53 $end
$var wire 1 O# RxSample|count[11]~54_combout $end
$var wire 1 P# RxSample|count[11]~55 $end
$var wire 1 Q# RxSample|count[12]~56_combout $end
$var wire 1 R# RxSample|count[12]~57 $end
$var wire 1 S# RxSample|count[13]~58_combout $end
$var wire 1 T# RxSample|count[13]~59 $end
$var wire 1 U# RxSample|count[14]~60_combout $end
$var wire 1 V# RxSample|count[14]~61 $end
$var wire 1 W# RxSample|count[15]~62_combout $end
$var wire 1 X# RxSample|count[15]~63 $end
$var wire 1 Y# RxSample|count[16]~64_combout $end
$var wire 1 Z# RxSample|count[16]~65 $end
$var wire 1 [# RxSample|count[17]~66_combout $end
$var wire 1 \# RxSample|count[17]~67 $end
$var wire 1 ]# RxSample|count[18]~68_combout $end
$var wire 1 ^# RxSample|count[18]~69 $end
$var wire 1 _# RxSample|count[19]~70_combout $end
$var wire 1 `# RxSample|count[19]~71 $end
$var wire 1 a# RxSample|count[20]~72_combout $end
$var wire 1 b# RxSample|count[20]~73 $end
$var wire 1 c# RxSample|count[21]~74_combout $end
$var wire 1 d# RxSample|count[21]~75 $end
$var wire 1 e# RxSample|count[22]~76_combout $end
$var wire 1 f# RxSample|count[22]~77 $end
$var wire 1 g# RxSample|count[23]~78_combout $end
$var wire 1 h# RxSample|count[23]~79 $end
$var wire 1 i# RxSample|count[24]~80_combout $end
$var wire 1 j# RxSample|count[24]~81 $end
$var wire 1 k# RxSample|count[25]~82_combout $end
$var wire 1 l# RxSample|count[25]~83 $end
$var wire 1 m# RxSample|count[26]~84_combout $end
$var wire 1 n# RxSample|count[26]~85 $end
$var wire 1 o# RxSample|count[27]~86_combout $end
$var wire 1 p# RxSample|count[27]~87 $end
$var wire 1 q# RxSample|count[28]~88_combout $end
$var wire 1 r# RxSample|count[28]~89 $end
$var wire 1 s# RxSample|count[29]~90_combout $end
$var wire 1 t# RxSample|count[29]~91 $end
$var wire 1 u# RxSample|count[30]~92_combout $end
$var wire 1 v# RxSample|count[30]~93 $end
$var wire 1 w# RxSample|count[31]~94_combout $end
$var wire 1 x# RxSample|LessThan0~34_combout $end
$var wire 1 y# RxSample|out~q $end
$var wire 1 z# RxClock|count [31] $end
$var wire 1 {# RxClock|count [30] $end
$var wire 1 |# RxClock|count [29] $end
$var wire 1 }# RxClock|count [28] $end
$var wire 1 ~# RxClock|count [27] $end
$var wire 1 !$ RxClock|count [26] $end
$var wire 1 "$ RxClock|count [25] $end
$var wire 1 #$ RxClock|count [24] $end
$var wire 1 $$ RxClock|count [23] $end
$var wire 1 %$ RxClock|count [22] $end
$var wire 1 &$ RxClock|count [21] $end
$var wire 1 '$ RxClock|count [20] $end
$var wire 1 ($ RxClock|count [19] $end
$var wire 1 )$ RxClock|count [18] $end
$var wire 1 *$ RxClock|count [17] $end
$var wire 1 +$ RxClock|count [16] $end
$var wire 1 ,$ RxClock|count [15] $end
$var wire 1 -$ RxClock|count [14] $end
$var wire 1 .$ RxClock|count [13] $end
$var wire 1 /$ RxClock|count [12] $end
$var wire 1 0$ RxClock|count [11] $end
$var wire 1 1$ RxClock|count [10] $end
$var wire 1 2$ RxClock|count [9] $end
$var wire 1 3$ RxClock|count [8] $end
$var wire 1 4$ RxClock|count [7] $end
$var wire 1 5$ RxClock|count [6] $end
$var wire 1 6$ RxClock|count [5] $end
$var wire 1 7$ RxClock|count [4] $end
$var wire 1 8$ RxClock|count [3] $end
$var wire 1 9$ RxClock|count [2] $end
$var wire 1 :$ RxClock|count [1] $end
$var wire 1 ;$ RxClock|count [0] $end
$var wire 1 <$ RxSample|count [31] $end
$var wire 1 =$ RxSample|count [30] $end
$var wire 1 >$ RxSample|count [29] $end
$var wire 1 ?$ RxSample|count [28] $end
$var wire 1 @$ RxSample|count [27] $end
$var wire 1 A$ RxSample|count [26] $end
$var wire 1 B$ RxSample|count [25] $end
$var wire 1 C$ RxSample|count [24] $end
$var wire 1 D$ RxSample|count [23] $end
$var wire 1 E$ RxSample|count [22] $end
$var wire 1 F$ RxSample|count [21] $end
$var wire 1 G$ RxSample|count [20] $end
$var wire 1 H$ RxSample|count [19] $end
$var wire 1 I$ RxSample|count [18] $end
$var wire 1 J$ RxSample|count [17] $end
$var wire 1 K$ RxSample|count [16] $end
$var wire 1 L$ RxSample|count [15] $end
$var wire 1 M$ RxSample|count [14] $end
$var wire 1 N$ RxSample|count [13] $end
$var wire 1 O$ RxSample|count [12] $end
$var wire 1 P$ RxSample|count [11] $end
$var wire 1 Q$ RxSample|count [10] $end
$var wire 1 R$ RxSample|count [9] $end
$var wire 1 S$ RxSample|count [8] $end
$var wire 1 T$ RxSample|count [7] $end
$var wire 1 U$ RxSample|count [6] $end
$var wire 1 V$ RxSample|count [5] $end
$var wire 1 W$ RxSample|count [4] $end
$var wire 1 X$ RxSample|count [3] $end
$var wire 1 Y$ RxSample|count [2] $end
$var wire 1 Z$ RxSample|count [1] $end
$var wire 1 [$ RxSample|count [0] $end
$var wire 1 \$ RCounter|count [31] $end
$var wire 1 ]$ RCounter|count [30] $end
$var wire 1 ^$ RCounter|count [29] $end
$var wire 1 _$ RCounter|count [28] $end
$var wire 1 `$ RCounter|count [27] $end
$var wire 1 a$ RCounter|count [26] $end
$var wire 1 b$ RCounter|count [25] $end
$var wire 1 c$ RCounter|count [24] $end
$var wire 1 d$ RCounter|count [23] $end
$var wire 1 e$ RCounter|count [22] $end
$var wire 1 f$ RCounter|count [21] $end
$var wire 1 g$ RCounter|count [20] $end
$var wire 1 h$ RCounter|count [19] $end
$var wire 1 i$ RCounter|count [18] $end
$var wire 1 j$ RCounter|count [17] $end
$var wire 1 k$ RCounter|count [16] $end
$var wire 1 l$ RCounter|count [15] $end
$var wire 1 m$ RCounter|count [14] $end
$var wire 1 n$ RCounter|count [13] $end
$var wire 1 o$ RCounter|count [12] $end
$var wire 1 p$ RCounter|count [11] $end
$var wire 1 q$ RCounter|count [10] $end
$var wire 1 r$ RCounter|count [9] $end
$var wire 1 s$ RCounter|count [8] $end
$var wire 1 t$ RCounter|count [7] $end
$var wire 1 u$ RCounter|count [6] $end
$var wire 1 v$ RCounter|count [5] $end
$var wire 1 w$ RCounter|count [4] $end
$var wire 1 x$ RCounter|count [3] $end
$var wire 1 y$ RCounter|count [2] $end
$var wire 1 z$ RCounter|count [1] $end
$var wire 1 {$ RCounter|count [0] $end
$var wire 1 |$ SIPO|dataout [9] $end
$var wire 1 }$ SIPO|dataout [8] $end
$var wire 1 ~$ SIPO|dataout [7] $end
$var wire 1 !% SIPO|dataout [6] $end
$var wire 1 "% SIPO|dataout [5] $end
$var wire 1 #% SIPO|dataout [4] $end
$var wire 1 $% SIPO|dataout [3] $end
$var wire 1 %% SIPO|dataout [2] $end
$var wire 1 &% SIPO|dataout [1] $end
$var wire 1 '% SIPO|dataout [0] $end
$var wire 1 (% SIPO|data [9] $end
$var wire 1 )% SIPO|data [8] $end
$var wire 1 *% SIPO|data [7] $end
$var wire 1 +% SIPO|data [6] $end
$var wire 1 ,% SIPO|data [5] $end
$var wire 1 -% SIPO|data [4] $end
$var wire 1 .% SIPO|data [3] $end
$var wire 1 /% SIPO|data [2] $end
$var wire 1 0% SIPO|data [1] $end
$var wire 1 1% SIPO|data [0] $end
$upscope $end
$upscope $end
$enddefinitions $end
#0
$dumpvars
0!
1"
0#
b111 $
0%
0&
0'
01
00
0/
0.
0-
0,
0+
0*
0)
0(
02
13
x4
15
16
17
08
z9
z:
z;
0<
0=
0>
0?
0@
0A
0B
0C
0D
0E
0F
0G
0H
0I
0J
0K
1L
1M
0N
1O
0P
0Q
1R
0S
0T
0U
1V
0W
0X
0Y
1Z
0[
0\
0]
1^
0_
0`
0a
1b
0c
0d
0e
1f
0g
0h
0i
1j
0k
0l
0m
1n
0o
0p
0q
1r
0s
0t
0u
1v
0w
0x
0y
1z
0{
0|
0}
1~
0!!
0"!
0#!
1$!
0%!
0&!
0'!
1(!
0)!
0*!
0+!
1,!
0-!
0.!
0/!
10!
11!
12!
13!
14!
15!
16!
17!
18!
19!
1:!
0;!
0<!
0=!
0>!
0?!
0@!
0A!
0B!
0C!
1D!
1E!
1F!
0G!
0H!
0I!
0J!
0K!
0L!
0M!
0N!
0O!
0P!
0Q!
1R!
1S!
1T!
1U!
1V!
0W!
0X!
0Y!
0Z!
1[!
0\!
0]!
0^!
0_!
0`!
0a!
1b!
0c!
1d!
0e!
0f!
1g!
1h!
1i!
0j!
0k!
0l!
1m!
0n!
0o!
0p!
0q!
0r!
1s!
0t!
0u!
0v!
0w!
0x!
1y!
0z!
0{!
0|!
0}!
0~!
1!"
0""
0#"
0$"
0%"
0&"
1'"
0("
0)"
0*"
0+"
0,"
1-"
0."
0/"
00"
01"
02"
13"
04"
05"
06"
07"
08"
19"
0:"
0;"
0<"
0="
0>"
1?"
0@"
0A"
0B"
0C"
0D"
1E"
0F"
0G"
0H"
0I"
0J"
1K"
0L"
0M"
0N"
0O"
0P"
1Q"
0R"
0S"
0T"
0U"
0V"
1W"
1X"
1Y"
1Z"
1["
0\"
0]"
0^"
1_"
0`"
1a"
0b"
1c"
0d"
1e"
0f"
1g"
0h"
1i"
1j"
1k"
0l"
0m"
0n"
0o"
0p"
0q"
0r"
0s"
0t"
0u"
0v"
0w"
0x"
0y"
0z"
0{"
0|"
0}"
0~"
0!#
0"#
0##
1$#
1%#
1&#
1'#
0(#
0)#
0*#
1+#
0,#
1-#
0.#
1/#
00#
11#
02#
13#
04#
15#
16#
17#
18#
09#
0:#
0;#
1<#
0=#
0>#
0?#
1@#
0A#
0B#
0C#
1D#
0E#
0F#
0G#
1H#
0I#
0J#
0K#
1L#
0M#
0N#
0O#
1P#
0Q#
0R#
0S#
1T#
0U#
0V#
0W#
1X#
0Y#
0Z#
0[#
1\#
0]#
0^#
0_#
1`#
0a#
0b#
0c#
1d#
0e#
0f#
0g#
1h#
0i#
0j#
0k#
1l#
0m#
0n#
0o#
1p#
0q#
0r#
0s#
1t#
0u#
0v#
0w#
0x#
0y#
0;$
0:$
09$
08$
07$
06$
05$
04$
03$
02$
01$
00$
0/$
0.$
0-$
0,$
0+$
0*$
0)$
0($
0'$
0&$
0%$
0$$
0#$
0"$
0!$
0~#
0}#
0|#
0{#
0z#
0[$
0Z$
0Y$
0X$
0W$
0V$
0U$
0T$
0S$
0R$
0Q$
0P$
0O$
0N$
0M$
0L$
0K$
0J$
0I$
0H$
0G$
0F$
0E$
0D$
0C$
0B$
0A$
0@$
0?$
0>$
0=$
0<$
0{$
0z$
0y$
0x$
0w$
0v$
0u$
0t$
0s$
0r$
0q$
0p$
0o$
0n$
0m$
0l$
0k$
0j$
0i$
0h$
0g$
0f$
0e$
0d$
0c$
0b$
0a$
0`$
0_$
0^$
0]$
0\$
0'%
0&%
0%%
0$%
0#%
0"%
0!%
0~$
0}$
0|$
01%
00%
0/%
0.%
0-%
0,%
0+%
0*%
0)%
0(%
$end
#5000
1!
1I
1J
1[$
16$
17$
1:$
1:#
1f!
1`"
1c!
1Y!
0$#
0a"
1;#
#10000
0!
0I
0J
#15000
1!
1I
1J
1Z$
0[$
0<#
0:#
0;#
1$#
1=#
1<#
1;#
0=#
#20000
1#
0!
0I
1K
0J
19#
1n"
1Z!
0M
0h!
0d!
#25000
1!
1I
1J
0Z$
06$
07$
0:$
1a"
0f!
0`"
0c!
0Y!
0;#
#30000
0!
0I
0J
#35000
1!
1I
1J
#40000
0#
0!
0I
0K
0J
09#
0n"
0Z!
1M
1h!
1d!
#45000
1!
1I
1J
1[$
16$
17$
1:$
1:#
1f!
1`"
1c!
1Y!
0$#
0a"
1;#
#50000
0!
0I
0J
#55000
1!
1I
1J
1Z$
0[$
0<#
0:#
0;#
1$#
1=#
1<#
1;#
0=#
#60000
0!
0I
0J
#65000
1!
1I
1J
1[$
1:#
0$#
0<#
0;#
1=#
#70000
0!
0I
0J
#75000
1!
1I
1J
1Y$
0Z$
0[$
1>#
0=#
1*#
1<#
0:#
1;#
1$#
0+#
0>#
1=#
1?#
0;#
1,#
0?#
#80000
0!
0I
0J
#85000
1!
1I
1J
1[$
1:#
0$#
1;#
#90000
0!
0I
0J
#95000
1!
1I
1J
1Z$
0[$
0<#
0:#
0;#
1$#
1>#
0=#
1<#
1;#
0>#
1=#
1?#
0?#
#100000
0!
0I
0J
#105000
1!
1I
1J
1[$
1:#
0$#
0<#
0;#
1>#
0=#
1?#
#110000
0!
0I
0J
#115000
1!
1I
1J
1X$
0Y$
0Z$
0[$
0@#
0>#
1=#
0*#
1<#
0:#
0?#
1;#
1$#
1A#
1@#
0=#
1?#
0;#
0A#
#120000
0!
0I
0J
#125000
1!
1I
1J
1[$
1:#
0$#
1;#
#130000
0!
0I
0J
#135000
1!
1I
1J
1Z$
0[$
0<#
0:#
0;#
1$#
1=#
1<#
1;#
0=#
#140000
0!
0I
0J
#145000
1!
1I
1J
1[$
1:#
0$#
0<#
0;#
1=#
#150000
0!
0I
0J
#155000
1!
1I
1J
1Y$
0Z$
0[$
1>#
0=#
1*#
1<#
0:#
1;#
1$#
0@#
0>#
1=#
0?#
0;#
1A#
1@#
1?#
0A#
#160000
0!
0I
0J
#165000
1!
1I
1J
1[$
1:#
0$#
1;#
#170000
0!
0I
0J
#175000
1!
1I
1J
1Z$
0[$
0<#
0:#
0;#
1$#
1>#
0=#
1<#
1;#
0@#
0>#
1=#
0?#
1A#
1@#
1?#
0A#
#180000
0!
0I
0J
#185000
1!
1I
1J
1[$
1:#
0$#
0<#
0;#
1>#
0=#
0@#
0?#
1A#
#190000
0!
0I
0J
