UART/simulation/qsim/UART.msim.vcd
$comment
	File created using the following command:
		vcd file UART.msim.vcd -direction
$end
$date
	Sun Sep 11 16:30:49 2022
$end
$version
	ModelSim Version 10.5b
$end
$timescale
	1ps
$end

$scope module UART_vlg_vec_tst $end
$var reg 1 ! Clock $end
$var reg 8 " Datain [7:0] $end
$var reg 1 # Rst $end
$var reg 1 $ Send $end
$var reg 1 % configmode $end
$var wire 1 & busy $end
$var wire 1 ' clkout $end
$var wire 1 ( controlLine [6] $end
$var wire 1 ) controlLine [5] $end
$var wire 1 * controlLine [4] $end
$var wire 1 + controlLine [3] $end
$var wire 1 , controlLine [2] $end
$var wire 1 - controlLine [1] $end
$var wire 1 . controlLine [0] $end
$var wire 1 / dtout [10] $end
$var wire 1 0 dtout [9] $end
$var wire 1 1 dtout [8] $end
$var wire 1 2 dtout [7] $end
$var wire 1 3 dtout [6] $end
$var wire 1 4 dtout [5] $end
$var wire 1 5 dtout [4] $end
$var wire 1 6 dtout [3] $end
$var wire 1 7 dtout [2] $end
$var wire 1 8 dtout [1] $end
$var wire 1 9 dtout [0] $end
$var wire 1 : out $end
$var wire 1 ; parity $end

$scope module i1 $end
$var wire 1 < gnd $end
$var wire 1 = vcc $end
$var wire 1 > unknown $end
$var tri1 1 ? devclrn $end
$var tri1 1 @ devpor $end
$var tri1 1 A devoe $end
$var wire 1 B ~QUARTUS_CREATED_GND~I_combout $end
$var wire 1 C ~QUARTUS_CREATED_UNVM~~busy $end
$var wire 1 D ~QUARTUS_CREATED_ADC1~~eoc $end
$var wire 1 E ~QUARTUS_CREATED_ADC2~~eoc $end
$var wire 1 F out~output_o $end
$var wire 1 G clkout~output_o $end
$var wire 1 H parity~output_o $end
$var wire 1 I busy~output_o $end
$var wire 1 J dtout[0]~output_o $end
$var wire 1 K dtout[1]~output_o $end
$var wire 1 L dtout[2]~output_o $end
$var wire 1 M dtout[3]~output_o $end
$var wire 1 N dtout[4]~output_o $end
$var wire 1 O dtout[5]~output_o $end
$var wire 1 P dtout[6]~output_o $end
$var wire 1 Q dtout[7]~output_o $end
$var wire 1 R dtout[8]~output_o $end
$var wire 1 S dtout[9]~output_o $end
$var wire 1 T dtout[10]~output_o $end
$var wire 1 U controlLine[0]~output_o $end
$var wire 1 V controlLine[1]~output_o $end
$var wire 1 W controlLine[2]~output_o $end
$var wire 1 X controlLine[3]~output_o $end
$var wire 1 Y controlLine[4]~output_o $end
$var wire 1 Z controlLine[5]~output_o $end
$var wire 1 [ controlLine[6]~output_o $end
$var wire 1 \ Clock~input_o $end
$var wire 1 ] Clock~inputclkctrl_outclk $end
$var wire 1 ^ Rst~input_o $end
$var wire 1 _ Datain[0]~input_o $end
$var wire 1 ` Send~input_o $end
$var wire 1 a configmode~input_o $end
$var wire 1 b ClockTx|count[0]~32_combout $end
$var wire 1 c ClockTx|LessThan0~33_combout $end
$var wire 1 d ClockTx|LessThan0~32_combout $end
$var wire 1 e ClockTx|LessThan0~29_combout $end
$var wire 1 f ClockTx|LessThan0~30_combout $end
$var wire 1 g uControl|selection[0]~feeder_combout $end
$var wire 1 h uControl|uMem~1_combout $end
$var wire 1 i uControl|ControlLines[0]~feeder_combout $end
$var wire 1 j Datain[2]~input_o $end
$var wire 1 k uControl|selection[2]~feeder_combout $end
$var wire 1 l uControl|ControlLines[2]~feeder_combout $end
$var wire 1 m Datain[1]~input_o $end
$var wire 1 n uControl|selection[1]~feeder_combout $end
$var wire 1 o uControl|ControlLines[1]~feeder_combout $end
$var wire 1 p ClockTx|Decoder0~0_combout $end
$var wire 1 q ClockTx|Decoder0~1_combout $end
$var wire 1 r ClockTx|Decoder1~0_combout $end
$var wire 1 s ClockTx|Time~0_combout $end
$var wire 1 t ClockTx|Decoder0~2_combout $end
$var wire 1 u ClockTx|Decoder1~1_combout $end
$var wire 1 v ClockTx|WideOr0~0_combout $end
$var wire 1 w ClockTx|tiempo[7]~0_combout $end
$var wire 1 x ClockTx|WideOr1~0_combout $end
$var wire 1 y ClockTx|Time~1_combout $end
$var wire 1 z ClockTx|Decoder2~0_combout $end
$var wire 1 { ClockTx|WideOr2~0_combout $end
$var wire 1 | ClockTx|WideOr3~0_combout $end
$var wire 1 } ClockTx|LessThan0~0_combout $end
$var wire 1 ~ ClockTx|LessThan0~2_cout $end
$var wire 1 !! ClockTx|LessThan0~4_cout $end
$var wire 1 "! ClockTx|LessThan0~6_cout $end
$var wire 1 #! ClockTx|LessThan0~8_cout $end
$var wire 1 $! ClockTx|LessThan0~10_cout $end
$var wire 1 %! ClockTx|LessThan0~12_cout $end
$var wire 1 &! ClockTx|LessThan0~14_cout $end
$var wire 1 '! ClockTx|LessThan0~16_cout $end
$var wire 1 (! ClockTx|LessThan0~18_cout $end
$var wire 1 )! ClockTx|LessThan0~20_cout $end
$var wire 1 *! ClockTx|LessThan0~22_cout $end
$var wire 1 +! ClockTx|LessThan0~24_cout $end
$var wire 1 ,! ClockTx|LessThan0~26_cout $end
$var wire 1 -! ClockTx|LessThan0~27_combout $end
$var wire 1 .! ClockTx|LessThan0~31_combout $end
$var wire 1 /! ClockTx|LessThan0~34_combout $end
$var wire 1 0! ClockTx|count[28]~96_combout $end
$var wire 1 1! ClockTx|count[0]~33 $end
$var wire 1 2! ClockTx|count[1]~34_combout $end
$var wire 1 3! ClockTx|count[1]~35 $end
$var wire 1 4! ClockTx|count[2]~36_combout $end
$var wire 1 5! ClockTx|count[2]~37 $end
$var wire 1 6! ClockTx|count[3]~38_combout $end
$var wire 1 7! ClockTx|count[3]~39 $end
$var wire 1 8! ClockTx|count[4]~40_combout $end
$var wire 1 9! ClockTx|count[4]~41 $end
$var wire 1 :! ClockTx|count[5]~42_combout $end
$var wire 1 ;! ClockTx|count[5]~43 $end
$var wire 1 <! ClockTx|count[6]~44_combout $end
$var wire 1 =! ClockTx|count[6]~45 $end
$var wire 1 >! ClockTx|count[7]~46_combout $end
$var wire 1 ?! ClockTx|count[7]~47 $end
$var wire 1 @! ClockTx|count[8]~48_combout $end
$var wire 1 A! ClockTx|count[8]~49 $end
$var wire 1 B! ClockTx|count[9]~50_combout $end
$var wire 1 C! ClockTx|count[9]~51 $end
$var wire 1 D! ClockTx|count[10]~52_combout $end
$var wire 1 E! ClockTx|count[10]~53 $end
$var wire 1 F! ClockTx|count[11]~54_combout $end
$var wire 1 G! ClockTx|count[11]~55 $end
$var wire 1 H! ClockTx|count[12]~56_combout $end
$var wire 1 I! ClockTx|count[12]~57 $end
$var wire 1 J! ClockTx|count[13]~58_combout $end
$var wire 1 K! ClockTx|count[13]~59 $end
$var wire 1 L! ClockTx|count[14]~60_combout $end
$var wire 1 M! ClockTx|count[14]~61 $end
$var wire 1 N! ClockTx|count[15]~62_combout $end
$var wire 1 O! ClockTx|count[15]~63 $end
$var wire 1 P! ClockTx|count[16]~64_combout $end
$var wire 1 Q! ClockTx|count[16]~65 $end
$var wire 1 R! ClockTx|count[17]~66_combout $end
$var wire 1 S! ClockTx|count[17]~67 $end
$var wire 1 T! ClockTx|count[18]~68_combout $end
$var wire 1 U! ClockTx|count[18]~69 $end
$var wire 1 V! ClockTx|count[19]~70_combout $end
$var wire 1 W! ClockTx|count[19]~71 $end
$var wire 1 X! ClockTx|count[20]~72_combout $end
$var wire 1 Y! ClockTx|count[20]~73 $end
$var wire 1 Z! ClockTx|count[21]~74_combout $end
$var wire 1 [! ClockTx|count[21]~75 $end
$var wire 1 \! ClockTx|count[22]~76_combout $end
$var wire 1 ]! ClockTx|count[22]~77 $end
$var wire 1 ^! ClockTx|count[23]~78_combout $end
$var wire 1 _! ClockTx|count[23]~79 $end
$var wire 1 `! ClockTx|count[24]~80_combout $end
$var wire 1 a! ClockTx|count[24]~81 $end
$var wire 1 b! ClockTx|count[25]~82_combout $end
$var wire 1 c! ClockTx|count[25]~83 $end
$var wire 1 d! ClockTx|count[26]~84_combout $end
$var wire 1 e! ClockTx|count[26]~85 $end
$var wire 1 f! ClockTx|count[27]~86_combout $end
$var wire 1 g! ClockTx|count[27]~87 $end
$var wire 1 h! ClockTx|count[28]~88_combout $end
$var wire 1 i! ClockTx|count[28]~89 $end
$var wire 1 j! ClockTx|count[29]~90_combout $end
$var wire 1 k! ClockTx|count[29]~91 $end
$var wire 1 l! ClockTx|count[30]~92_combout $end
$var wire 1 m! ClockTx|count[30]~93 $end
$var wire 1 n! ClockTx|count[31]~94_combout $end
$var wire 1 o! ClockTx|out~0_combout $end
$var wire 1 p! ClockTx|out~feeder_combout $end
$var wire 1 q! ClockTx|out~q $end
$var wire 1 r! uControl|address[0]~8_combout $end
$var wire 1 s! uControl|address[0]~3_combout $end
$var wire 1 t! ClockTx|out~clkctrl_outclk $end
$var wire 1 u! uControl|count~5_combout $end
$var wire 1 v! uControl|count[3]~2_combout $end
$var wire 1 w! uControl|count~4_combout $end
$var wire 1 x! uControl|count~3_combout $end
$var wire 1 y! uControl|count~0_combout $end
$var wire 1 z! uControl|count~1_combout $end
$var wire 1 {! uControl|countout~0_combout $end
$var wire 1 |! uControl|countout~q $end
$var wire 1 }! uControl|address[0]~4_combout $end
$var wire 1 ~! uControl|address[1]~6_combout $end
$var wire 1 !" uControl|address[1]~7_combout $end
$var wire 1 "" uControl|Equal0~0_combout $end
$var wire 1 #" uControl|always0~0_combout $end
$var wire 1 $" uControl|Equal0~1_combout $end
$var wire 1 %" uControl|address[0]~2_combout $end
$var wire 1 &" uControl|address[0]~5_combout $end
$var wire 1 '" uControl|uMem~0_combout $end
$var wire 1 (" Datain[4]~input_o $end
$var wire 1 )" Datain[5]~input_o $end
$var wire 1 *" Datain[7]~input_o $end
$var wire 1 +" Datain[6]~input_o $end
$var wire 1 ," ParityGenerator|out~1_combout $end
$var wire 1 -" Datain[3]~input_o $end
$var wire 1 ." ParityGenerator|out~0_combout $end
$var wire 1 /" ParityGenerator|out~2_combout $end
$var wire 1 0" ShiftReg|inpt~q $end
$var wire 1 1" ShiftReg|divclk~0_combout $end
$var wire 1 2" ShiftReg|divclk~q $end
$var wire 1 3" ShiftReg|flips~11_combout $end
$var wire 1 4" ShiftReg|flips~12_combout $end
$var wire 1 5" ShiftReg|flips~10_combout $end
$var wire 1 6" ShiftReg|flips[0]~1_combout $end
$var wire 1 7" ShiftReg|flips~9_combout $end
$var wire 1 8" ShiftReg|flips~8_combout $end
$var wire 1 9" ShiftReg|flips~7_combout $end
$var wire 1 :" ShiftReg|flips~6_combout $end
$var wire 1 ;" ShiftReg|flips~5_combout $end
$var wire 1 <" ShiftReg|flips~4_combout $end
$var wire 1 =" ShiftReg|flips~3_combout $end
$var wire 1 >" ShiftReg|flips~2_combout $end
$var wire 1 ?" ShiftReg|flips~0_combout $end
$var wire 1 @" ShiftReg|out~0_combout $end
$var wire 1 A" ShiftReg|out~q $end
$var wire 1 B" ShiftReg|Dout[0]~0_combout $end
$var wire 1 C" ShiftReg|Dout[1]~1_combout $end
$var wire 1 D" ShiftReg|Dout[2]~2_combout $end
$var wire 1 E" ShiftReg|Dout[3]~3_combout $end
$var wire 1 F" ShiftReg|Dout[4]~4_combout $end
$var wire 1 G" ShiftReg|Dout[5]~5_combout $end
$var wire 1 H" ShiftReg|Dout[6]~6_combout $end
$var wire 1 I" ShiftReg|Dout[7]~7_combout $end
$var wire 1 J" ShiftReg|Dout[8]~8_combout $end
$var wire 1 K" ShiftReg|Dout[9]~9_combout $end
$var wire 1 L" ShiftReg|Dout[10]~10_combout $end
$var wire 1 M" ClockTx|count [31] $end
$var wire 1 N" ClockTx|count [30] $end
$var wire 1 O" ClockTx|count [29] $end
$var wire 1 P" ClockTx|count [28] $end
$var wire 1 Q" ClockTx|count [27] $end
$var wire 1 R" ClockTx|count [26] $end
$var wire 1 S" ClockTx|count [25] $end
$var wire 1 T" ClockTx|count [24] $end
$var wire 1 U" ClockTx|count [23] $end
$var wire 1 V" ClockTx|count [22] $end
$var wire 1 W" ClockTx|count [21] $end
$var wire 1 X" ClockTx|count [20] $end
$var wire 1 Y" ClockTx|count [19] $end
$var wire 1 Z" ClockTx|count [18] $end
$var wire 1 [" ClockTx|count [17] $end
$var wire 1 \" ClockTx|count [16] $end
$var wire 1 ]" ClockTx|count [15] $end
$var wire 1 ^" ClockTx|count [14] $end
$var wire 1 _" ClockTx|count [13] $end
$var wire 1 `" ClockTx|count [12] $end
$var wire 1 a" ClockTx|count [11] $end
$var wire 1 b" ClockTx|count [10] $end
$var wire 1 c" ClockTx|count [9] $end
$var wire 1 d" ClockTx|count [8] $end
$var wire 1 e" ClockTx|count [7] $end
$var wire 1 f" ClockTx|count [6] $end
$var wire 1 g" ClockTx|count [5] $end
$var wire 1 h" ClockTx|count [4] $end
$var wire 1 i" ClockTx|count [3] $end
$var wire 1 j" ClockTx|count [2] $end
$var wire 1 k" ClockTx|count [1] $end
$var wire 1 l" ClockTx|count [0] $end
$var wire 1 m" ShiftReg|flips [10] $end
$var wire 1 n" ShiftReg|flips [9] $end
$var wire 1 o" ShiftReg|flips [8] $end
$var wire 1 p" ShiftReg|flips [7] $end
$var wire 1 q" ShiftReg|flips [6] $end
$var wire 1 r" ShiftReg|flips [5] $end
$var wire 1 s" ShiftReg|flips [4] $end
$var wire 1 t" ShiftReg|flips [3] $end
$var wire 1 u" ShiftReg|flips [2] $end
$var wire 1 v" ShiftReg|flips [1] $end
$var wire 1 w" ShiftReg|flips [0] $end
$var wire 1 x" uControl|ControlLines [6] $end
$var wire 1 y" uControl|ControlLines [5] $end
$var wire 1 z" uControl|ControlLines [4] $end
$var wire 1 {" uControl|ControlLines [3] $end
$var wire 1 |" uControl|ControlLines [2] $end
$var wire 1 }" uControl|ControlLines [1] $end
$var wire 1 ~" uControl|ControlLines [0] $end
$var wire 1 !# ShiftReg|Dout [10] $end
$var wire 1 "# ShiftReg|Dout [9] $end
$var wire 1 ## ShiftReg|Dout [8] $end
$var wire 1 $# ShiftReg|Dout [7] $end
$var wire 1 %# ShiftReg|Dout [6] $end
$var wire 1 &# ShiftReg|Dout [5] $end
$var wire 1 '# ShiftReg|Dout [4] $end
$var wire 1 (# ShiftReg|Dout [3] $end
$var wire 1 )# ShiftReg|Dout [2] $end
$var wire 1 *# ShiftReg|Dout [1] $end
$var wire 1 +# ShiftReg|Dout [0] $end
$var wire 1 ,# uControl|selection [3] $end
$var wire 1 -# uControl|selection [2] $end
$var wire 1 .# uControl|selection [1] $end
$var wire 1 /# uControl|selection [0] $end
$var wire 1 0# uControl|address [1] $end
$var wire 1 1# uControl|address [0] $end
$var wire 1 2# uControl|count [3] $end
$var wire 1 3# uControl|count [2] $end
$var wire 1 4# uControl|count [1] $end
$var wire 1 5# uControl|count [0] $end
$upscope $end
$upscope $end
$enddefinitions $end
#0
$dumpvars
0!
b0 "
0#
0$
0%
0&
0'
0.
0-
0,
0+
0*
0)
1(
09
08
07
06
05
04
03
02
01
00
0/
0:
1;
0<
1=
x>
1?
1@
1A
0B
zC
zD
zE
0F
0G
1H
0I
0J
0K
0L
0M
0N
0O
0P
0Q
0R
0S
0T
0U
0V
0W
0X
0Y
0Z
1[
0\
0]
0^
0_
0`
0a
1b
1c
1d
1e
1f
0g
0h
0i
0j
0k
0l
0m
0n
0o
0p
0q
0r
0s
0t
0u
1v
0w
0x
0y
0z
0{
0|
0}
0~
0!!
1"!
0#!
1$!
0%!
1&!
0'!
1(!
0)!
1*!
0+!
1,!
1-!
1.!
1/!
00!
01!
02!
13!
04!
05!
06!
17!
08!
09!
0:!
1;!
0<!
0=!
0>!
1?!
0@!
0A!
0B!
1C!
0D!
0E!
0F!
1G!
0H!
0I!
0J!
1K!
0L!
0M!
0N!
1O!
0P!
0Q!
0R!
1S!
0T!
0U!
0V!
1W!
0X!
0Y!
0Z!
1[!
0\!
0]!
0^!
1_!
0`!
0a!
0b!
1c!
0d!
0e!
0f!
1g!
0h!
0i!
0j!
1k!
0l!
0m!
0n!
0o!
0p!
0q!
0r!
0s!
0t!
0u!
0v!
0w!
0x!
0y!
0z!
0{!
0|!
0}!
1~!
0!"
1""
0#"
0$"
0%"
0&"
0'"
0("
0)"
0*"
0+"
0,"
0-"
0."
0/"
00"
01"
02"
13"
04"
05"
06"
07"
08"
09"
0:"
0;"
0<"
0="
0>"
0?"
1@"
0A"
1B"
1C"
1D"
1E"
1F"
1G"
1H"
1I"
1J"
1K"
1L"
0l"
0k"
0j"
0i"
0h"
0g"
0f"
0e"
0d"
0c"
0b"
0a"
0`"
0_"
0^"
0]"
0\"
0["
0Z"
0Y"
0X"
0W"
0V"
0U"
0T"
0S"
0R"
0Q"
0P"
0O"
0N"
0M"
0w"
0v"
0u"
0t"
0s"
0r"
0q"
0p"
0o"
0n"
0m"
0~"
0}"
0|"
0{"
0z"
0y"
zx"
0+#
0*#
0)#
0(#
0'#
0&#
0%#
0$#
0##
0"#
0!#
0/#
0.#
0-#
0,#
01#
00#
05#
04#
03#
02#
$end
#5000
1!
1\
1]
1l"
1!#
1"#
1##
1$#
1%#
1&#
1'#
1(#
1)#
1*#
1+#
1A"
1F
1J
1K
1L
1M
1N
1O
1P
1Q
1R
1S
1T
11!
0b
1/
10
11
12
13
14
15
16
17
18
19
1:
12!
#10000
0!
0\
0]
#15000
1!
1\
1]
1k"
0l"
03!
01!
1b
02!
13!
14!
12!
04!
#20000
0!
0\
0]
#25000
1!
1\
1]
1l"
11!
0b
03!
02!
14!
#30000
0!
0\
0]
#35000
1!
1\
1]
1j"
0k"
0l"
15!
1!!
13!
01!
1b
04!
12!
05!
16!
14!
02!
06!
#40000
0!
0\
0]
#45000
1!
1\
1]
1l"
11!
0b
12!
#50000
0!
0\
0]
#55000
1!
1\
1]
1k"
0l"
03!
01!
1b
02!
15!
13!
04!
12!
05!
16!
14!
06!
#60000
0!
0\
0]
#65000
1!
1\
1]
1l"
11!
0b
03!
02!
15!
04!
16!
#70000
0!
0\
0]
#75000
1!
1\
1]
1i"
0j"
0k"
0l"
07!
0"!
05!
0!!
13!
01!
1b
06!
14!
12!
1#!
17!
1"!
18!
16!
04!
02!
0#!
08!
#80000
0!
0\
0]
#85000
1!
1\
1]
1l"
11!
0b
12!
#90000
0!
0\
0]
#95000
1!
1\
1]
1k"
0l"
03!
01!
1b
02!
13!
14!
12!
04!
#100000
0!
0\
0]
#105000
1!
1\
1]
1l"
11!
0b
03!
02!
14!
#110000
0!
0\
0]
#115000
1!
1\
1]
1j"
0k"
0l"
15!
1!!
13!
01!
1b
04!
12!
07!
0"!
05!
06!
14!
02!
1#!
17!
18!
16!
08!
#120000
0!
0\
0]
#125000
1!
1\
1]
1l"
11!
0b
12!
#130000
0!
0\
0]
#135000
1!
1\
1]
1k"
0l"
03!
01!
1b
02!
15!
13!
04!
12!
07!
05!
06!
14!
17!
18!
16!
08!
#140000
0!
0\
0]
#145000
1!
1\
1]
1l"
11!
0b
03!
02!
15!
04!
07!
06!
18!
#150000
0!
0\
0]
#155000
1!
1\
1]
1h"
0i"
0j"
0k"
0l"
19!
17!
1"!
05!
0!!
13!
01!
1b
08!
16!
14!
12!
09!
1:!
18!
06!
04!
02!
0:!
#160000
0!
0\
0]
#165000
1!
1\
1]
1l"
11!
0b
12!
#170000
0!
0\
0]
#175000
1!
1\
1]
1k"
0l"
03!
01!
1b
02!
13!
14!
12!
04!
#180000
0!
0\
0]
#185000
1!
1\
1]
1l"
11!
0b
03!
02!
14!
#190000
0!
0\
0]
#195000
1!
1\
1]
1j"
0k"
0l"
15!
1!!
13!
01!
1b
04!
12!
05!
16!
14!
02!
06!
#200000
0!
0\
0]
#205000
1!
1\
1]
1l"
11!
0b
12!
#210000
0!
0\
0]
#215000
1!
1\
1]
1k"
0l"
03!
01!
1b
02!
15!
13!
04!
12!
05!
16!
14!
06!
#220000
0!
0\
0]
#225000
1!
1\
1]
1l"
11!
0b
03!
02!
15!
04!
16!
#230000
0!
0\
0]
#235000
1!
1\
1]
1i"
0j"
0k"
0l"
07!
0"!
05!
0!!
13!
01!
1b
06!
14!
12!
19!
17!
1"!
08!
16!
04!
02!
09!
1:!
18!
0:!
#240000
0!
0\
0]
#245000
1!
1\
1]
1l"
11!
0b
12!
#250000
0!
0\
0]
#255000
1!
1\
1]
1k"
0l"
03!
01!
1b
02!
13!
14!
12!
04!
#260000
0!
0\
0]
#265000
1!
1\
1]
1l"
11!
0b
03!
02!
14!
#270000
0!
0\
0]
#275000
1!
1\
1]
1j"
0k"
0l"
15!
1!!
13!
01!
1b
04!
12!
07!
0"!
05!
06!
14!
02!
19!
17!
08!
16!
09!
1:!
18!
0:!
#280000
0!
0\
0]
#285000
1!
1\
1]
1l"
11!
0b
12!
#290000
0!
0\
0]
#295000
1!
1\
1]
1k"
0l"
03!
01!
1b
02!
15!
13!
04!
12!
07!
05!
06!
14!
19!
17!
08!
16!
09!
1:!
18!
0:!
#300000
0!
0\
0]
#305000
1!
1\
1]
1l"
11!
0b
03!
02!
15!
04!
07!
06!
19!
08!
1:!
#310000
0!
0\
0]
#315000
1!
1\
1]
1g"
0h"
0i"
0j"
0k"
0l"
0;!
0$!
09!
17!
1"!
05!
0!!
13!
01!
1b
0:!
18!
16!
14!
12!
1%!
1;!
0#!
1<!
1:!
08!
06!
04!
02!
0&!
1$!
0<!
0%!
1&!
#320000
0!
0\
0]
#325000
1!
1\
1]
1l"
11!
0b
12!
#330000
0!
0\
0]
#335000
1!
1\
1]
1k"
0l"
03!
01!
1b
02!
13!
14!
12!
04!
#340000
0!
0\
0]
#345000
1!
1\
1]
1l"
11!
0b
03!
02!
14!
#350000
0!
0\
0]
#355000
1!
1\
1]
1j"
0k"
0l"
15!
1!!
13!
01!
1b
04!
12!
05!
16!
14!
02!
06!
#360000
0!
0\
0]
#365000
1!
1\
1]
1l"
11!
0b
12!
#370000
0!
0\
0]
#375000
1!
1\
1]
1k"
0l"
03!
01!
1b
02!
15!
13!
04!
12!
05!
16!
14!
06!
#380000
0!
0\
0]
#385000
1!
1\
1]
1l"
11!
0b
03!
02!
15!
04!
16!
#390000
0!
0\
0]
#395000
1!
1\
1]
1i"
0j"
0k"
0l"
07!
0"!
05!
0!!
13!
01!
1b
06!
14!
12!
1#!
17!
1"!
18!
16!
04!
02!
0$!
0#!
08!
1%!
1$!
0&!
0%!
1&!
#400000
0!
0\
0]
#405000
1!
1\
1]
1l"
11!
0b
12!
#410000
0!
0\
0]
#415000
1!
1\
1]
1k"
0l"
03!
01!
1b
02!
13!
14!
12!
04!
#420000
0!
0\
0]
#425000
1!
1\
1]
1l"
11!
0b
03!
02!
14!
#430000
0!
0\
0]
#435000
1!
1\
1]
1j"
0k"
0l"
15!
1!!
13!
01!
1b
04!
12!
07!
0"!
05!
06!
14!
02!
1#!
17!
18!
16!
0$!
08!
1%!
0&!
#440000
0!
0\
0]
#445000
1!
1\
1]
1l"
11!
0b
12!
#450000
0!
0\
0]
#455000
1!
1\
1]
1k"
0l"
03!
01!
1b
02!
15!
13!
04!
12!
07!
05!
06!
14!
17!
18!
16!
08!
#460000
0!
0\
0]
#465000
1!
1\
1]
1l"
11!
0b
03!
02!
15!
04!
07!
06!
18!
#470000
0!
0\
0]
#475000
1!
1\
1]
1h"
0i"
0j"
0k"
0l"
19!
17!
1"!
05!
0!!
13!
01!
1b
08!
16!
14!
12!
0;!
09!
0:!
18!
06!
04!
02!
1;!
1<!
1:!
0<!
#480000
0!
0\
0]
#485000
1!
1\
1]
1l"
11!
0b
12!
#490000
0!
0\
0]
#495000
1!
1\
1]
1k"
0l"
03!
01!
1b
02!
13!
14!
12!
04!
#500000
0!
0\
0]
#505000
1!
1\
1]
1l"
11!
0b
03!
02!
14!
#510000
0!
0\
0]
#515000
1!
1\
1]
1j"
0k"
0l"
15!
1!!
13!
01!
1b
04!
12!
05!
16!
14!
02!
06!
#520000
0!
0\
0]
#525000
1!
1\
1]
1l"
11!
0b
12!
#530000
0!
0\
0]
#535000
1!
1\
1]
1k"
0l"
03!
01!
1b
02!
15!
13!
04!
12!
05!
16!
14!
06!
#540000
0!
0\
0]
#545000
1!
1\
1]
1l"
11!
0b
03!
02!
15!
04!
16!
#550000
0!
0\
0]
#555000
1!
1\
1]
1i"
0j"
0k"
0l"
07!
0"!
05!
0!!
13!
01!
1b
06!
14!
12!
19!
17!
1"!
08!
16!
04!
02!
0;!
09!
0:!
18!
1;!
1<!
1:!
0<!
#560000
0!
0\
0]
#565000
1!
1\
1]
1l"
11!
0b
12!
#570000
0!
0\
0]
#575000
1!
1\
1]
1k"
0l"
03!
01!
1b
02!
13!
14!
12!
04!
#580000
0!
0\
0]
#585000
1!
1\
1]
1l"
11!
0b
03!
02!
14!
#590000
0!
0\
0]
#595000
1!
1\
1]
1j"
0k"
0l"
15!
1!!
13!
01!
1b
04!
12!
07!
0"!
05!
06!
14!
02!
19!
17!
08!
16!
0;!
09!
0:!
18!
1;!
1<!
1:!
0<!
#600000
0!
0\
0]
#605000
1!
1\
1]
1l"
11!
0b
12!
#610000
0!
0\
0]
#615000
1!
1\
1]
1k"
0l"
03!
01!
1b
02!
15!
13!
04!
12!
07!
05!
06!
14!
19!
17!
08!
16!
0;!
09!
0:!
18!
1;!
1<!
1:!
0<!
#620000
0!
0\
0]
#625000
1!
1\
1]
1l"
11!
0b
03!
02!
15!
04!
07!
06!
19!
08!
0;!
0:!
1<!
#630000
0!
0\
0]
#635000
1!
1\
1]
1f"
0g"
0h"
0i"
0j"
0k"
0l"
1=!
1;!
1$!
09!
17!
1"!
05!
0!!
13!
01!
1b
0<!
1:!
18!
16!
14!
12!
1>!
0=!
0#!
1<!
0:!
08!
06!
04!
02!
0>!
#640000
0!
0\
0]
#645000
1!
1\
1]
1l"
11!
0b
12!
#650000
0!
0\
0]
#655000
1!
1\
1]
1k"
0l"
03!
01!
1b
02!
13!
14!
12!
04!
#660000
0!
0\
0]
#665000
1!
1\
1]
1l"
11!
0b
03!
02!
14!
#670000
0!
0\
0]
#675000
1!
1\
1]
1j"
0k"
0l"
15!
1!!
13!
01!
1b
04!
12!
05!
16!
14!
02!
06!
#680000
0!
0\
0]
#685000
1!
1\
1]
1l"
11!
0b
12!
#690000
0!
0\
0]
#695000
1!
1\
1]
1k"
0l"
03!
01!
1b
02!
15!
13!
04!
12!
05!
16!
14!
06!
#700000
0!
0\
0]
#705000
1!
1\
1]
1l"
11!
0b
03!
02!
15!
04!
16!
#710000
0!
0\
0]
#715000
1!
1\
1]
1i"
0j"
0k"
0l"
07!
0"!
05!
0!!
13!
01!
1b
06!
14!
12!
1#!
17!
1"!
18!
16!
04!
02!
0#!
08!
#720000
0!
0\
0]
#725000
1!
1\
1]
1l"
11!
0b
12!
#730000
0!
0\
0]
#735000
1!
1\
1]
1k"
0l"
03!
01!
1b
02!
13!
14!
12!
04!
#740000
0!
0\
0]
#745000
1!
1\
1]
1l"
11!
0b
03!
02!
14!
#750000
0!
0\
0]
#755000
1!
1\
1]
1j"
0k"
0l"
15!
1!!
13!
01!
1b
04!
12!
07!
0"!
05!
06!
14!
02!
1#!
17!
18!
16!
08!
#760000
0!
0\
0]
#765000
1!
1\
1]
1l"
11!
0b
12!
#770000
0!
0\
0]
#775000
1!
1\
1]
1k"
0l"
03!
01!
1b
02!
15!
13!
04!
12!
07!
05!
06!
14!
17!
18!
16!
08!
#780000
0!
0\
0]
#785000
1!
1\
1]
1l"
11!
0b
03!
02!
15!
04!
07!
06!
18!
#790000
0!
0\
0]
#795000
1!
1\
1]
1h"
0i"
0j"
0k"
0l"
19!
17!
1"!
05!
0!!
13!
01!
1b
08!
16!
14!
12!
09!
1:!
18!
06!
04!
02!
0:!
#800000
0!
0\
0]
#805000
1!
1\
1]
1l"
11!
0b
12!
#810000
0!
0\
0]
#815000
1!
1\
1]
1k"
0l"
03!
01!
1b
02!
13!
14!
12!
04!
#820000
0!
0\
0]
#825000
1!
1\
1]
1l"
11!
0b
03!
02!
14!
#830000
0!
0\
0]
#835000
1!
1\
1]
1j"
0k"
0l"
15!
1!!
13!
01!
1b
04!
12!
05!
16!
14!
02!
06!
#840000
0!
0\
0]
#845000
1!
1\
1]
1l"
11!
0b
12!
#850000
0!
0\
0]
#855000
1!
1\
1]
1k"
0l"
03!
01!
1b
02!
15!
13!
04!
12!
05!
16!
14!
06!
#860000
0!
0\
0]
#865000
1!
1\
1]
1l"
11!
0b
03!
02!
15!
04!
16!
#870000
0!
0\
0]
#875000
1!
1\
1]
1i"
0j"
0k"
0l"
07!
0"!
05!
0!!
13!
01!
1b
06!
14!
12!
19!
17!
1"!
08!
16!
04!
02!
09!
1:!
18!
0:!
#880000
0!
0\
0]
#885000
1!
1\
1]
1l"
11!
0b
12!
#890000
0!
0\
0]
#895000
1!
1\
1]
1k"
0l"
03!
01!
1b
02!
13!
14!
12!
04!
#900000
0!
0\
0]
#905000
1!
1\
1]
1l"
11!
0b
03!
02!
14!
#910000
0!
0\
0]
#915000
1!
1\
1]
1j"
0k"
0l"
15!
1!!
13!
01!
1b
04!
12!
07!
0"!
05!
06!
14!
02!
19!
17!
08!
16!
09!
1:!
18!
0:!
#920000
0!
0\
0]
#925000
1!
1\
1]
1l"
11!
0b
12!
#930000
0!
0\
0]
#935000
1!
1\
1]
1k"
0l"
03!
01!
1b
02!
15!
13!
04!
12!
07!
05!
06!
14!
19!
17!
08!
16!
09!
1:!
18!
0:!
#940000
0!
0\
0]
#945000
1!
1\
1]
1l"
11!
0b
03!
02!
15!
04!
07!
06!
19!
08!
1:!
#950000
0!
0\
0]
#955000
1!
1\
1]
1g"
0h"
0i"
0j"
0k"
0l"
0;!
0$!
09!
17!
1"!
05!
0!!
13!
01!
1b
0:!
18!
16!
14!
12!
1=!
1;!
0#!
0<!
1:!
08!
06!
04!
02!
1>!
0=!
1$!
1<!
0>!
#960000
0!
0\
0]
