UART/Clock/simulation/qsim/UARTClock.msim.vcd
$comment
	File created using the following command:
		vcd file UARTClock.msim.vcd -direction
$end
$date
	Sun Sep 04 22:34:57 2022
$end
$version
	ModelSim Version 10.5b
$end
$timescale
	1ps
$end

$scope module UARTClock_vlg_vec_tst $end
$var reg 1 ! Clk $end
$var reg 1 " Rst $end
$var wire 1 # out $end

$scope module i1 $end
$var wire 1 $ gnd $end
$var wire 1 % vcc $end
$var wire 1 & unknown $end
$var tri1 1 ' devclrn $end
$var tri1 1 ( devpor $end
$var tri1 1 ) devoe $end
$var wire 1 * ~QUARTUS_CREATED_GND~I_combout $end
$var wire 1 + ~QUARTUS_CREATED_UNVM~~busy $end
$var wire 1 , ~QUARTUS_CREATED_ADC1~~eoc $end
$var wire 1 - out~output_o $end
$var wire 1 . Clk~input_o $end
$var wire 1 / Clk~inputclkctrl_outclk $end
$var wire 1 0 Rst~input_o $end
$var wire 1 1 count[0]~32_combout $end
$var wire 1 2 count[24]~36_combout $end
$var wire 1 3 count[0]~33 $end
$var wire 1 4 count[1]~34_combout $end
$var wire 1 5 count[1]~35 $end
$var wire 1 6 count[2]~37_combout $end
$var wire 1 7 count[2]~38 $end
$var wire 1 8 count[3]~39_combout $end
$var wire 1 9 count[3]~40 $end
$var wire 1 : count[4]~41_combout $end
$var wire 1 ; count[4]~42 $end
$var wire 1 < count[5]~43_combout $end
$var wire 1 = count[5]~44 $end
$var wire 1 > count[6]~45_combout $end
$var wire 1 ? count[6]~46 $end
$var wire 1 @ count[7]~47_combout $end
$var wire 1 A count[7]~48 $end
$var wire 1 B count[8]~49_combout $end
$var wire 1 C count[8]~50 $end
$var wire 1 D count[9]~51_combout $end
$var wire 1 E count[9]~52 $end
$var wire 1 F count[10]~53_combout $end
$var wire 1 G count[10]~54 $end
$var wire 1 H count[11]~55_combout $end
$var wire 1 I count[11]~56 $end
$var wire 1 J count[12]~57_combout $end
$var wire 1 K count[12]~58 $end
$var wire 1 L count[13]~59_combout $end
$var wire 1 M count[13]~60 $end
$var wire 1 N count[14]~61_combout $end
$var wire 1 O count[14]~62 $end
$var wire 1 P count[15]~63_combout $end
$var wire 1 Q count[15]~64 $end
$var wire 1 R count[16]~65_combout $end
$var wire 1 S count[16]~66 $end
$var wire 1 T count[17]~67_combout $end
$var wire 1 U count[17]~68 $end
$var wire 1 V count[18]~69_combout $end
$var wire 1 W count[18]~70 $end
$var wire 1 X count[19]~71_combout $end
$var wire 1 Y count[19]~72 $end
$var wire 1 Z count[20]~73_combout $end
$var wire 1 [ count[20]~74 $end
$var wire 1 \ count[21]~75_combout $end
$var wire 1 ] count[21]~76 $end
$var wire 1 ^ count[22]~77_combout $end
$var wire 1 _ count[22]~78 $end
$var wire 1 ` count[23]~79_combout $end
$var wire 1 a count[23]~80 $end
$var wire 1 b count[24]~81_combout $end
$var wire 1 c count[24]~82 $end
$var wire 1 d count[25]~83_combout $end
$var wire 1 e count[25]~84 $end
$var wire 1 f count[26]~85_combout $end
$var wire 1 g count[26]~86 $end
$var wire 1 h count[27]~87_combout $end
$var wire 1 i Equal0~8_combout $end
$var wire 1 j count[27]~88 $end
$var wire 1 k count[28]~89_combout $end
$var wire 1 l count[28]~90 $end
$var wire 1 m count[29]~91_combout $end
$var wire 1 n count[29]~92 $end
$var wire 1 o count[30]~93_combout $end
$var wire 1 p count[30]~94 $end
$var wire 1 q count[31]~95_combout $end
$var wire 1 r Equal0~9_combout $end
$var wire 1 s Equal0~3_combout $end
$var wire 1 t Equal0~0_combout $end
$var wire 1 u Equal0~2_combout $end
$var wire 1 v Equal0~1_combout $end
$var wire 1 w Equal0~4_combout $end
$var wire 1 x Equal0~5_combout $end
$var wire 1 y Equal0~6_combout $end
$var wire 1 z Equal0~7_combout $end
$var wire 1 { Equal0~10_combout $end
$var wire 1 | out~0_combout $end
$var wire 1 } out~reg0_q $end
$var wire 1 ~ count [31] $end
$var wire 1 !! count [30] $end
$var wire 1 "! count [29] $end
$var wire 1 #! count [28] $end
$var wire 1 $! count [27] $end
$var wire 1 %! count [26] $end
$var wire 1 &! count [25] $end
$var wire 1 '! count [24] $end
$var wire 1 (! count [23] $end
$var wire 1 )! count [22] $end
$var wire 1 *! count [21] $end
$var wire 1 +! count [20] $end
$var wire 1 ,! count [19] $end
$var wire 1 -! count [18] $end
$var wire 1 .! count [17] $end
$var wire 1 /! count [16] $end
$var wire 1 0! count [15] $end
$var wire 1 1! count [14] $end
$var wire 1 2! count [13] $end
$var wire 1 3! count [12] $end
$var wire 1 4! count [11] $end
$var wire 1 5! count [10] $end
$var wire 1 6! count [9] $end
$var wire 1 7! count [8] $end
$var wire 1 8! count [7] $end
$var wire 1 9! count [6] $end
$var wire 1 :! count [5] $end
$var wire 1 ;! count [4] $end
$var wire 1 <! count [3] $end
$var wire 1 =! count [2] $end
$var wire 1 >! count [1] $end
$var wire 1 ?! count [0] $end
$upscope $end
$upscope $end
$enddefinitions $end
#0
$dumpvars
0!
0"
0#
0$
1%
x&
1'
1(
1)
0*
z+
z,
0-
0.
0/
00
11
02
03
04
15
06
07
08
19
0:
0;
0<
1=
0>
0?
0@
1A
0B
0C
0D
1E
0F
0G
0H
1I
0J
0K
0L
1M
0N
0O
0P
1Q
0R
0S
0T
1U
0V
0W
0X
1Y
0Z
0[
0\
1]
0^
0_
0`
1a
0b
0c
0d
1e
0f
0g
0h
0i
1j
0k
0l
0m
1n
0o
0p
0q
0r
0s
1t
0u
0v
1w
0x
0y
0z
1{
0|
0}
0?!
0>!
0=!
0<!
0;!
0:!
09!
08!
07!
06!
05!
04!
03!
02!
01!
00!
0/!
0.!
0-!
0,!
0+!
0*!
0)!
0(!
0'!
0&!
0%!
0$!
0#!
0"!
0!!
0~
$end
#5000
1!
1.
1/
1?!
13
01
14
#10000
0!
0.
0/
#15000
1!
1.
1/
1>!
0?!
05
03
04
11
15
16
14
06
#20000
0!
0.
0/
#25000
1!
1.
1/
1?!
13
01
05
04
16
#30000
0!
0.
0/
#35000
1!
1.
1/
1=!
0>!
0?!
17
15
03
06
14
11
07
18
16
04
08
#40000
0!
0.
0/
#45000
1!
1.
1/
1?!
13
01
14
#50000
0!
0.
0/
#55000
1!
1.
1/
1>!
0?!
05
03
04
11
17
15
06
14
07
18
16
08
#60000
0!
0.
0/
#65000
1!
1.
1/
1?!
13
01
05
04
17
06
18
#70000
0!
0.
0/
#75000
1!
1.
1/
1<!
0=!
0>!
0?!
09
07
15
03
08
16
14
11
19
1:
18
06
04
0:
#80000
0!
0.
0/
#85000
1!
1.
1/
1?!
0t
13
01
0w
14
0{
12
1|
#90000
0!
0.
0/
#95000
1!
1.
1/
0<!
0?!
1}
1-
1t
03
1#
08
11
1w
04
1{
02
0|
#100000
0!
0.
0/
#105000
1!
1.
1/
1?!
0}
0-
13
0#
01
14
#110000
0!
0.
0/
#115000
1!
1.
1/
1>!
0?!
05
03
04
11
15
16
14
06
#120000
0!
0.
0/
#125000
1!
1.
1/
1?!
13
01
05
04
16
#130000
0!
0.
0/
#135000
1!
1.
1/
1=!
0>!
0?!
17
15
03
06
14
11
07
18
16
04
08
#140000
0!
0.
0/
#145000
1!
1.
1/
1?!
13
01
14
#150000
0!
0.
0/
#155000
1!
1.
1/
1>!
0?!
05
03
04
11
17
15
06
14
07
18
16
08
#160000
0!
0.
0/
#165000
1!
1.
1/
1?!
13
01
05
04
17
06
18
#170000
0!
0.
0/
#175000
1!
1.
1/
1<!
0=!
0>!
0?!
09
07
15
03
08
16
14
11
19
1:
18
06
04
0:
#180000
0!
0.
0/
#185000
1!
1.
1/
1?!
0t
13
01
0w
14
0{
12
1|
#190000
0!
0.
0/
#195000
1!
1.
1/
0<!
0?!
1}
1-
1t
03
1#
08
11
1w
04
1{
02
0|
#200000
0!
0.
0/
#205000
1!
1.
1/
1?!
0}
0-
13
0#
01
14
#210000
0!
0.
0/
#215000
1!
1.
1/
1>!
0?!
05
03
04
11
15
16
14
06
#220000
0!
0.
0/
#225000
1!
1.
1/
1?!
13
01
05
04
16
#230000
0!
0.
0/
#235000
1!
1.
1/
1=!
0>!
0?!
17
15
03
06
14
11
07
18
16
04
08
#240000
0!
0.
0/
#245000
1!
1.
1/
1?!
13
01
14
#250000
0!
0.
0/
#255000
1!
1.
1/
1>!
0?!
05
03
04
11
17
15
06
14
07
18
16
08
#260000
0!
0.
0/
#265000
1!
1.
1/
1?!
13
01
05
04
17
06
18
#270000
0!
0.
0/
#275000
1!
1.
1/
1<!
0=!
0>!
0?!
09
07
15
03
08
16
14
11
19
1:
18
06
04
0:
#280000
0!
0.
0/
#285000
1!
1.
1/
1?!
0t
13
01
0w
14
0{
12
1|
#290000
0!
0.
0/
#295000
1!
1.
1/
0<!
0?!
1}
1-
1t
03
1#
08
11
1w
04
1{
02
0|
#300000
0!
0.
0/
#305000
1!
1.
1/
1?!
0}
0-
13
0#
01
14
#310000
0!
0.
0/
#315000
1!
1.
1/
1>!
0?!
05
03
04
11
15
16
14
06
#320000
0!
0.
0/
#325000
1!
1.
1/
1?!
13
01
05
04
16
#330000
0!
0.
0/
#335000
1!
1.
1/
1=!
0>!
0?!
17
15
03
06
14
11
07
18
16
04
08
#340000
0!
0.
0/
#345000
1!
1.
1/
1?!
13
01
14
#350000
0!
0.
0/
#355000
1!
1.
1/
1>!
0?!
05
03
04
11
17
15
06
14
07
18
16
08
#360000
0!
0.
0/
#365000
1!
1.
1/
1?!
13
01
05
04
17
06
18
#370000
0!
0.
0/
#375000
1!
1.
1/
1<!
0=!
0>!
0?!
09
07
15
03
08
16
14
11
19
1:
18
06
04
0:
#380000
0!
0.
0/
#385000
1!
1.
1/
1?!
0t
13
01
0w
14
0{
12
1|
#390000
0!
0.
0/
#395000
1!
1.
1/
0<!
0?!
1}
1-
1t
03
1#
08
11
1w
04
1{
02
0|
#400000
0!
0.
0/
#405000
1!
1.
1/
1?!
0}
0-
13
0#
01
14
#410000
0!
0.
0/
#415000
1!
1.
1/
1>!
0?!
05
03
04
11
15
16
14
06
#420000
0!
0.
0/
#425000
1!
1.
1/
1?!
13
01
05
04
16
#430000
0!
0.
0/
#435000
1!
1.
1/
1=!
0>!
0?!
17
15
03
06
14
11
07
18
16
04
08
#440000
0!
0.
0/
#445000
1!
1.
1/
1?!
13
01
14
#450000
0!
0.
0/
#455000
1!
1.
1/
1>!
0?!
05
03
04
11
17
15
06
14
07
18
16
08
#460000
0!
0.
0/
#465000
1!
1.
1/
1?!
13
01
05
04
17
06
18
#470000
0!
0.
0/
#475000
1!
1.
1/
1<!
0=!
0>!
0?!
09
07
15
03
08
16
14
11
19
1:
18
06
04
0:
#480000
0!
0.
0/
#485000
1!
1.
1/
1?!
0t
13
01
0w
14
0{
12
1|
#490000
0!
0.
0/
#495000
1!
1.
1/
0<!
0?!
1}
1-
1t
03
1#
08
11
1w
04
1{
02
0|
#500000
0!
0.
0/
#505000
1!
1.
1/
1?!
0}
0-
13
0#
01
14
#510000
0!
0.
0/
#515000
1!
1.
1/
1>!
0?!
05
03
04
11
15
16
14
06
#520000
0!
0.
0/
#525000
1!
1.
1/
1?!
13
01
05
04
16
#530000
0!
0.
0/
#535000
1!
1.
1/
1=!
0>!
0?!
17
15
03
06
14
11
07
18
16
04
08
#540000
0!
0.
0/
#545000
1!
1.
1/
1?!
13
01
14
#550000
0!
0.
0/
#555000
1!
1.
1/
1>!
0?!
05
03
04
11
17
15
06
14
07
18
16
08
#560000
0!
0.
0/
#565000
1!
1.
1/
1?!
13
01
05
04
17
06
18
#570000
0!
0.
0/
#575000
1!
1.
1/
1<!
0=!
0>!
0?!
09
07
15
03
08
16
14
11
19
1:
18
06
04
0:
#580000
0!
0.
0/
#585000
1!
1.
1/
1?!
0t
13
01
0w
14
0{
12
1|
#590000
0!
0.
0/
#595000
1!
1.
1/
0<!
0?!
1}
1-
1t
03
1#
08
11
1w
04
1{
02
0|
#600000
0!
0.
0/
#605000
1!
1.
1/
1?!
0}
0-
13
0#
01
14
#610000
0!
0.
0/
#615000
1!
1.
1/
1>!
0?!
05
03
04
11
15
16
14
06
#620000
0!
0.
0/
#625000
1!
1.
1/
1?!
13
01
05
04
16
#630000
0!
0.
0/
#635000
1!
1.
1/
1=!
0>!
0?!
17
15
03
06
14
11
07
18
16
04
08
#640000
0!
0.
0/
#645000
1!
1.
1/
1?!
13
01
14
#650000
0!
0.
0/
#655000
1!
1.
1/
1>!
0?!
05
03
04
11
17
15
06
14
07
18
16
08
#660000
0!
0.
0/
#665000
1!
1.
1/
1?!
13
01
05
04
17
06
18
#670000
0!
0.
0/
#675000
1!
1.
1/
1<!
0=!
0>!
0?!
09
07
15
03
08
16
14
11
19
1:
18
06
04
0:
#680000
0!
0.
0/
#685000
1!
1.
1/
1?!
0t
13
01
0w
14
0{
12
1|
#690000
0!
0.
0/
#695000
1!
1.
1/
0<!
0?!
1}
1-
1t
03
1#
08
11
1w
04
1{
02
0|
#700000
0!
0.
0/
#705000
1!
1.
1/
1?!
0}
0-
13
0#
01
14
#710000
0!
0.
0/
#715000
1!
1.
1/
1>!
0?!
05
03
04
11
15
16
14
06
#720000
0!
0.
0/
#725000
1!
1.
1/
1?!
13
01
05
04
16
#730000
0!
0.
0/
#735000
1!
1.
1/
1=!
0>!
0?!
17
15
03
06
14
11
07
18
16
04
08
#740000
0!
0.
0/
#745000
1!
1.
1/
1?!
13
01
14
#750000
0!
0.
0/
#755000
1!
1.
1/
1>!
0?!
05
03
04
11
17
15
06
14
07
18
16
08
#760000
0!
0.
0/
#765000
1!
1.
1/
1?!
13
01
05
04
17
06
18
#770000
0!
0.
0/
#775000
1!
1.
1/
1<!
0=!
0>!
0?!
09
07
15
03
08
16
14
11
19
1:
18
06
04
0:
#780000
0!
0.
0/
#785000
1!
1.
1/
1?!
0t
13
01
0w
14
0{
12
1|
#790000
0!
0.
0/
#795000
1!
1.
1/
0<!
0?!
1}
1-
1t
03
1#
08
11
1w
04
1{
02
0|
#800000
0!
0.
0/
#805000
1!
1.
1/
1?!
0}
0-
13
0#
01
14
#810000
0!
0.
0/
#815000
1!
1.
1/
1>!
0?!
05
03
04
11
15
16
14
06
#820000
0!
0.
0/
#825000
1!
1.
1/
1?!
13
01
05
04
16
#830000
0!
0.
0/
#835000
1!
1.
1/
1=!
0>!
0?!
17
15
03
06
14
11
07
18
16
04
08
#840000
0!
0.
0/
#845000
1!
1.
1/
1?!
13
01
14
#850000
0!
0.
0/
#855000
1!
1.
1/
1>!
0?!
05
03
04
11
17
15
06
14
07
18
16
08
#860000
0!
0.
0/
#865000
1!
1.
1/
1?!
13
01
05
04
17
06
18
#870000
0!
0.
0/
#875000
1!
1.
1/
1<!
0=!
0>!
0?!
09
07
15
03
08
16
14
11
19
1:
18
06
04
0:
#880000
0!
0.
0/
#885000
1!
1.
1/
1?!
0t
13
01
0w
14
0{
12
1|
#890000
0!
0.
0/
#895000
1!
1.
1/
0<!
0?!
1}
1-
1t
03
1#
08
11
1w
04
1{
02
0|
#900000
0!
0.
0/
#905000
1!
1.
1/
1?!
0}
0-
13
0#
01
14
#910000
0!
0.
0/
#915000
1!
1.
1/
1>!
0?!
05
03
04
11
15
16
14
06
#920000
0!
0.
0/
#925000
1!
1.
1/
1?!
13
01
05
04
16
#930000
0!
0.
0/
#935000
1!
1.
1/
1=!
0>!
0?!
17
15
03
06
14
11
07
18
16
04
08
#940000
0!
0.
0/
#945000
1!
1.
1/
1?!
13
01
14
#950000
0!
0.
0/
#955000
1!
1.
1/
1>!
0?!
05
03
04
11
17
15
06
14
07
18
16
08
#960000
0!
0.
0/
#965000
1!
1.
1/
1?!
13
01
05
04
17
06
18
#970000
0!
0.
0/
#975000
1!
1.
1/
1<!
0=!
0>!
0?!
09
07
15
03
08
16
14
11
19
1:
18
06
04
0:
#980000
0!
0.
0/
#985000
1!
1.
1/
1?!
0t
13
01
0w
14
0{
12
1|
#990000
0!
0.
0/
#995000
1!
1.
1/
0<!
0?!
1}
1-
1t
03
1#
08
11
1w
04
1{
02
0|
