UART/Clock/simulation/qsim/UARTClock.msim.vcd
$comment
	File created using the following command:
		vcd file UARTClock.msim.vcd -direction
$end
$date
	Tue Sep 06 21:40:52 2022
$end
$version
	ModelSim Version 10.5b
$end
$timescale
	1ps
$end

$scope module UARTClock_vlg_vec_tst $end
$var reg 1 ! Clk $end
$var reg 32 " Count [31:0] $end
$var reg 1 # Rst $end
$var reg 3 $ Select [2:0] $end
$var wire 1 % out $end
$var wire 1 & tiempo [11] $end
$var wire 1 ' tiempo [10] $end
$var wire 1 ( tiempo [9] $end
$var wire 1 ) tiempo [8] $end
$var wire 1 * tiempo [7] $end
$var wire 1 + tiempo [6] $end
$var wire 1 , tiempo [5] $end
$var wire 1 - tiempo [4] $end
$var wire 1 . tiempo [3] $end
$var wire 1 / tiempo [2] $end
$var wire 1 0 tiempo [1] $end
$var wire 1 1 tiempo [0] $end

$scope module i1 $end
$var wire 1 2 gnd $end
$var wire 1 3 vcc $end
$var wire 1 4 unknown $end
$var tri1 1 5 devclrn $end
$var tri1 1 6 devpor $end
$var tri1 1 7 devoe $end
$var wire 1 8 Count[0]~input_o $end
$var wire 1 9 Count[1]~input_o $end
$var wire 1 : Count[2]~input_o $end
$var wire 1 ; Count[3]~input_o $end
$var wire 1 < Count[4]~input_o $end
$var wire 1 = Count[5]~input_o $end
$var wire 1 > Count[6]~input_o $end
$var wire 1 ? Count[7]~input_o $end
$var wire 1 @ Count[8]~input_o $end
$var wire 1 A Count[9]~input_o $end
$var wire 1 B Count[10]~input_o $end
$var wire 1 C Count[11]~input_o $end
$var wire 1 D Count[12]~input_o $end
$var wire 1 E Count[13]~input_o $end
$var wire 1 F Count[14]~input_o $end
$var wire 1 G Count[15]~input_o $end
$var wire 1 H Count[16]~input_o $end
$var wire 1 I Count[17]~input_o $end
$var wire 1 J Count[18]~input_o $end
$var wire 1 K Count[19]~input_o $end
$var wire 1 L Count[20]~input_o $end
$var wire 1 M Count[21]~input_o $end
$var wire 1 N Count[22]~input_o $end
$var wire 1 O Count[23]~input_o $end
$var wire 1 P Count[24]~input_o $end
$var wire 1 Q Count[25]~input_o $end
$var wire 1 R Count[26]~input_o $end
$var wire 1 S Count[27]~input_o $end
$var wire 1 T Count[28]~input_o $end
$var wire 1 U Count[29]~input_o $end
$var wire 1 V Count[30]~input_o $end
$var wire 1 W Count[31]~input_o $end
$var wire 1 X ~QUARTUS_CREATED_GND~I_combout $end
$var wire 1 Y ~QUARTUS_CREATED_UNVM~~busy $end
$var wire 1 Z ~QUARTUS_CREATED_ADC1~~eoc $end
$var wire 1 [ out~output_o $end
$var wire 1 \ tiempo[0]~output_o $end
$var wire 1 ] tiempo[1]~output_o $end
$var wire 1 ^ tiempo[2]~output_o $end
$var wire 1 _ tiempo[3]~output_o $end
$var wire 1 ` tiempo[4]~output_o $end
$var wire 1 a tiempo[5]~output_o $end
$var wire 1 b tiempo[6]~output_o $end
$var wire 1 c tiempo[7]~output_o $end
$var wire 1 d tiempo[8]~output_o $end
$var wire 1 e tiempo[9]~output_o $end
$var wire 1 f tiempo[10]~output_o $end
$var wire 1 g tiempo[11]~output_o $end
$var wire 1 h Clk~input_o $end
$var wire 1 i Clk~inputclkctrl_outclk $end
$var wire 1 j Rst~input_o $end
$var wire 1 k count[0]~32_combout $end
$var wire 1 l count[31]~74_combout $end
$var wire 1 m count[0]~33 $end
$var wire 1 n count[1]~34_combout $end
$var wire 1 o count[1]~35 $end
$var wire 1 p count[2]~36_combout $end
$var wire 1 q count[2]~37 $end
$var wire 1 r count[3]~38_combout $end
$var wire 1 s count[3]~39 $end
$var wire 1 t count[4]~40_combout $end
$var wire 1 u count[4]~41 $end
$var wire 1 v count[5]~42_combout $end
$var wire 1 w count[5]~43 $end
$var wire 1 x count[6]~44_combout $end
$var wire 1 y count[6]~45 $end
$var wire 1 z count[7]~46_combout $end
$var wire 1 { count[7]~47 $end
$var wire 1 | count[8]~48_combout $end
$var wire 1 } count[8]~49 $end
$var wire 1 ~ count[9]~50_combout $end
$var wire 1 !! count[9]~51 $end
$var wire 1 "! count[10]~52_combout $end
$var wire 1 #! count[10]~53 $end
$var wire 1 $! count[11]~54_combout $end
$var wire 1 %! count[11]~55 $end
$var wire 1 &! count[12]~56_combout $end
$var wire 1 '! count[12]~57 $end
$var wire 1 (! count[13]~58_combout $end
$var wire 1 )! count[13]~59 $end
$var wire 1 *! count[14]~60_combout $end
$var wire 1 +! count[14]~61 $end
$var wire 1 ,! count[15]~62_combout $end
$var wire 1 -! count[15]~63 $end
$var wire 1 .! count[16]~64_combout $end
$var wire 1 /! count[16]~65 $end
$var wire 1 0! count[17]~66_combout $end
$var wire 1 1! count[17]~67 $end
$var wire 1 2! count[18]~68_combout $end
$var wire 1 3! count[18]~69 $end
$var wire 1 4! count[19]~70_combout $end
$var wire 1 5! count[19]~71 $end
$var wire 1 6! count[20]~72_combout $end
$var wire 1 7! count[20]~73 $end
$var wire 1 8! count[21]~75_combout $end
$var wire 1 9! count[21]~76 $end
$var wire 1 :! count[22]~77_combout $end
$var wire 1 ;! count[22]~78 $end
$var wire 1 <! count[23]~79_combout $end
$var wire 1 =! Equal0~0_combout $end
$var wire 1 >! count[23]~80 $end
$var wire 1 ?! count[24]~81_combout $end
$var wire 1 @! count[24]~82 $end
$var wire 1 A! count[25]~83_combout $end
$var wire 1 B! count[25]~84 $end
$var wire 1 C! count[26]~85_combout $end
$var wire 1 D! count[26]~86 $end
$var wire 1 E! count[27]~87_combout $end
$var wire 1 F! Equal0~1_combout $end
$var wire 1 G! count[27]~88 $end
$var wire 1 H! count[28]~89_combout $end
$var wire 1 I! count[28]~90 $end
$var wire 1 J! count[29]~91_combout $end
$var wire 1 K! count[29]~92 $end
$var wire 1 L! count[30]~93_combout $end
$var wire 1 M! count[30]~94 $end
$var wire 1 N! count[31]~95_combout $end
$var wire 1 O! Equal0~2_combout $end
$var wire 1 P! Select[0]~input_o $end
$var wire 1 Q! Select[1]~input_o $end
$var wire 1 R! Select[2]~input_o $end
$var wire 1 S! WideOr1~0_combout $end
$var wire 1 T! WideOr0~0_combout $end
$var wire 1 U! Equal0~8_combout $end
$var wire 1 V! Equal0~13_combout $end
$var wire 1 W! Equal0~12_combout $end
$var wire 1 X! Equal0~10_combout $end
$var wire 1 Y! Equal0~11_combout $end
$var wire 1 Z! Equal0~14_combout $end
$var wire 1 [! Time~1_combout $end
$var wire 1 \! Time~2_combout $end
$var wire 1 ]! Equal0~9_combout $end
$var wire 1 ^! WideOr7~0_combout $end
$var wire 1 _! Decoder0~0_combout $end
$var wire 1 `! Equal0~3_combout $end
$var wire 1 a! WideOr4~0_combout $end
$var wire 1 b! WideOr5~0_combout $end
$var wire 1 c! Equal0~5_combout $end
$var wire 1 d! WideOr6~0_combout $end
$var wire 1 e! Time~0_combout $end
$var wire 1 f! Equal0~4_combout $end
$var wire 1 g! WideOr2~0_combout $end
$var wire 1 h! WideOr3~0_combout $end
$var wire 1 i! Equal0~6_combout $end
$var wire 1 j! Equal0~7_combout $end
$var wire 1 k! Equal0~15_combout $end
$var wire 1 l! Equal0~16_combout $end
$var wire 1 m! out~0_combout $end
$var wire 1 n! out~reg0_q $end
$var wire 1 o! count [31] $end
$var wire 1 p! count [30] $end
$var wire 1 q! count [29] $end
$var wire 1 r! count [28] $end
$var wire 1 s! count [27] $end
$var wire 1 t! count [26] $end
$var wire 1 u! count [25] $end
$var wire 1 v! count [24] $end
$var wire 1 w! count [23] $end
$var wire 1 x! count [22] $end
$var wire 1 y! count [21] $end
$var wire 1 z! count [20] $end
$var wire 1 {! count [19] $end
$var wire 1 |! count [18] $end
$var wire 1 }! count [17] $end
$var wire 1 ~! count [16] $end
$var wire 1 !" count [15] $end
$var wire 1 "" count [14] $end
$var wire 1 #" count [13] $end
$var wire 1 $" count [12] $end
$var wire 1 %" count [11] $end
$var wire 1 &" count [10] $end
$var wire 1 '" count [9] $end
$var wire 1 (" count [8] $end
$var wire 1 )" count [7] $end
$var wire 1 *" count [6] $end
$var wire 1 +" count [5] $end
$var wire 1 ," count [4] $end
$var wire 1 -" count [3] $end
$var wire 1 ." count [2] $end
$var wire 1 /" count [1] $end
$var wire 1 0" count [0] $end
$upscope $end
$upscope $end
$enddefinitions $end
#0
$dumpvars
0!
b0 "
1#
b11 $
0%
01
00
0/
1.
1-
0,
1+
0*
0)
0(
1'
0&
02
13
x4
15
16
17
08
09
0:
0;
0<
0=
0>
0?
0@
0A
0B
0C
0D
0E
0F
0G
0H
0I
0J
0K
0L
0M
0N
0O
0P
0Q
0R
0S
0T
0U
0V
0W
0X
zY
zZ
0[
0\
0]
0^
1_
1`
0a
1b
0c
0d
0e
1f
0g
0h
0i
1j
1k
1l
0m
0n
1o
0p
0q
0r
1s
0t
0u
0v
1w
0x
0y
0z
1{
0|
0}
0~
1!!
0"!
0#!
0$!
1%!
0&!
0'!
0(!
1)!
0*!
0+!
0,!
1-!
0.!
0/!
00!
11!
02!
03!
04!
15!
06!
07!
08!
19!
0:!
0;!
0<!
1=!
1>!
0?!
0@!
0A!
1B!
0C!
0D!
0E!
1F!
1G!
0H!
0I!
0J!
1K!
0L!
0M!
0N!
1O!
1P!
1Q!
0R!
0S!
1T!
1U!
0V!
0W!
0X!
1Y!
0Z!
1[!
0\!
0]!
0^!
0_!
1`!
1a!
1b!
0c!
1d!
0e!
0f!
1g!
0h!
0i!
0j!
0k!
0l!
0m!
0n!
00"
0/"
0."
0-"
0,"
0+"
0*"
0)"
0("
0'"
0&"
0%"
0$"
0#"
0""
0!"
0~!
0}!
0|!
0{!
0z!
0y!
0x!
0w!
0v!
0u!
0t!
0s!
0r!
0q!
0p!
0o!
$end
#5000
1!
1h
1i
#10000
0#
0!
0h
0j
0i
0l
#15000
1!
1h
1i
10"
0`!
1m
0k
1n
#20000
b111 $
0!
0h
1R!
0i
1h!
0g!
1e!
0a!
1X!
1^!
0[!
1S!
1d
0f
1]
1a
0_
1c
0b
1f!
1Z!
1]!
0U!
0+
1*
0.
1,
10
0'
1)
#25000
1!
1h
1i
1/"
00"
1`!
0o
0m
0n
1k
1o
1p
1n
0p
#30000
0!
0h
0i
#35000
1!
1h
1i
10"
0`!
1m
0k
0o
0n
1p
#40000
0!
0h
0i
#45000
1!
1h
1i
1."
0/"
00"
0f!
1q
1o
0m
0p
1n
1k
0q
1r
1p
0n
0r
#50000
0!
0h
0i
#55000
1!
1h
1i
10"
1m
0k
1n
#60000
0!
0h
0i
#65000
1!
1h
1i
1/"
00"
1`!
0o
0m
0n
1k
1q
1o
0p
1n
0q
1r
1p
0r
#70000
0!
0h
0i
#75000
1!
1h
1i
10"
0`!
1m
0k
0o
0n
1q
0p
1r
#80000
0!
0h
0i
#85000
1!
1h
1i
1-"
0."
0/"
00"
0s
0q
1o
0m
0r
1p
1n
1k
1s
1t
1r
0p
0n
0t
#90000
0!
0h
0i
#95000
1!
1h
1i
10"
1m
0k
1n
#100000
0!
0h
0i
#105000
1!
1h
1i
1/"
00"
1`!
0o
0m
0n
1k
1o
1p
1n
0p
#110000
0!
0h
0i
#115000
1!
1h
1i
10"
0`!
1m
0k
0o
0n
1p
#120000
0!
0h
0i
#125000
1!
1h
1i
1."
0/"
00"
1q
1o
0m
0p
1n
1k
0s
0q
0r
1p
0n
1s
1t
1r
0t
#130000
0!
0h
0i
#135000
1!
1h
1i
10"
1m
0k
1n
#140000
0!
0h
0i
#145000
1!
1h
1i
1/"
00"
1`!
0o
0m
0n
1k
1q
1o
0p
1n
0s
0q
0r
1p
1s
1t
1r
0t
#150000
0!
0h
0i
#155000
1!
1h
1i
10"
0`!
1m
0k
0o
0n
1q
0p
0s
0r
1t
#160000
0!
0h
0i
#165000
1!
1h
1i
1,"
0-"
0."
0/"
00"
1u
1f!
1s
0q
1o
0m
0t
1r
1p
1n
1k
0u
1v
1t
0r
0p
0n
0v
#170000
0!
0h
0i
#175000
1!
1h
1i
10"
1m
0k
1n
#180000
0!
0h
0i
#185000
1!
1h
1i
1/"
00"
1`!
0o
0m
0n
1k
1o
1p
1n
0p
#190000
0!
0h
0i
#195000
1!
1h
1i
10"
0`!
1m
0k
0o
0n
1p
#200000
0!
0h
0i
#205000
1!
1h
1i
1."
0/"
00"
0f!
1q
1o
0m
0p
1n
1k
0q
1r
1p
0n
0r
#210000
0!
0h
0i
#215000
1!
1h
1i
10"
1m
0k
1n
#220000
0!
0h
0i
#225000
1!
1h
1i
1/"
00"
1`!
0o
0m
0n
1k
1q
1o
0p
1n
0q
1r
1p
0r
#230000
0!
0h
0i
#235000
1!
1h
1i
10"
0`!
1m
0k
0o
0n
1q
0p
1r
#240000
0!
0h
0i
#245000
1!
1h
1i
1-"
0."
0/"
00"
0s
0q
1o
0m
0r
1p
1n
1k
1u
1s
0t
1r
0p
0n
0u
1v
1t
0v
#250000
0!
0h
0i
#255000
1!
1h
1i
10"
1m
0k
1n
#260000
0!
0h
0i
#265000
1!
1h
1i
1/"
00"
1`!
0o
0m
0n
1k
1o
1p
1n
0p
#270000
0!
0h
0i
#275000
1!
1h
1i
10"
0`!
1m
0k
0o
0n
1p
#280000
0!
0h
0i
#285000
1!
1h
1i
1."
0/"
00"
1q
1o
0m
0p
1n
1k
0s
0q
0r
1p
0n
1u
1s
0t
1r
0u
1v
1t
0v
#290000
0!
0h
0i
#295000
1!
1h
1i
10"
1m
0k
1n
#300000
0!
0h
0i
#305000
1!
1h
1i
1/"
00"
1`!
0o
0m
0n
1k
1q
1o
0p
1n
0s
0q
0r
1p
1u
1s
0t
1r
0u
1v
1t
0v
#310000
0!
0h
0i
#315000
1!
1h
1i
10"
0`!
1m
0k
0o
0n
1q
0p
0s
0r
1u
0t
1v
#320000
0!
0h
0i
#325000
1!
1h
1i
1+"
0,"
0-"
0."
0/"
00"
0w
0u
1f!
1s
0q
1o
0m
0v
1t
1r
1p
1n
1k
1w
1x
1v
0t
0r
0p
0n
0x
#330000
0!
0h
0i
#335000
1!
1h
1i
10"
1m
0k
1n
#340000
0!
0h
0i
#345000
1!
1h
1i
1/"
00"
1`!
0o
0m
0n
1k
1o
1p
1n
0p
#350000
0!
0h
0i
#355000
1!
1h
1i
10"
0`!
1m
0k
0o
0n
1p
#360000
0!
0h
0i
#365000
1!
1h
1i
1."
0/"
00"
0f!
1q
1o
0m
0p
1n
1k
0q
1r
1p
0n
0r
#370000
0!
0h
0i
#375000
1!
1h
1i
10"
1m
0k
1n
#380000
0!
0h
0i
#385000
1!
1h
1i
1/"
00"
1`!
0o
0m
0n
1k
1q
1o
0p
1n
0q
1r
1p
0r
#390000
0!
0h
0i
#395000
1!
1h
1i
10"
0`!
1m
0k
0o
0n
1q
0p
1r
#400000
0!
0h
0i
#405000
1!
1h
1i
1-"
0."
0/"
00"
0s
0q
1o
0m
0r
1p
1n
1k
1s
1t
1r
0p
0n
0t
#410000
0!
0h
0i
#415000
1!
1h
1i
10"
1m
0k
1n
#420000
0!
0h
0i
#425000
1!
1h
1i
1/"
00"
1`!
0o
0m
0n
1k
1o
1p
1n
0p
#430000
0!
0h
0i
#435000
1!
1h
1i
10"
0`!
1m
0k
0o
0n
1p
#440000
0!
0h
0i
#445000
1!
1h
1i
1."
0/"
00"
1q
1o
0m
0p
1n
1k
0s
0q
0r
1p
0n
1s
1t
1r
0t
#450000
0!
0h
0i
#455000
1!
1h
1i
10"
1m
0k
1n
#460000
0!
0h
0i
#465000
1!
1h
1i
1/"
00"
1`!
0o
0m
0n
1k
1q
1o
0p
1n
0s
0q
0r
1p
1s
1t
1r
0t
#470000
0!
0h
0i
#475000
1!
1h
1i
10"
0`!
1m
0k
0o
0n
1q
0p
0s
0r
1t
#480000
0!
0h
0i
#485000
1!
1h
1i
1,"
0-"
0."
0/"
00"
1c!
1u
1f!
1s
0q
1o
0m
0t
1r
1p
1n
1k
0w
0u
0v
1t
0r
0p
0n
1w
1x
1v
0x
#490000
0!
0h
0i
#495000
1!
1h
1i
10"
1m
0k
1n
#500000
0!
0h
0i
#505000
1!
1h
1i
1/"
00"
1`!
0o
0m
0n
1k
1o
1p
1n
0p
#510000
0!
0h
0i
#515000
1!
1h
1i
10"
0`!
1m
0k
0o
0n
1p
#520000
0!
0h
0i
#525000
1!
1h
1i
1."
0/"
00"
0f!
1q
1o
0m
0p
1n
1k
0q
1r
1p
0n
0r
#530000
0!
0h
0i
#535000
1!
1h
1i
10"
1m
0k
1n
#540000
0!
0h
0i
#545000
1!
1h
1i
1/"
00"
1`!
0o
0m
0n
1k
1q
1o
0p
1n
0q
1r
1p
0r
#550000
0!
0h
0i
#555000
1!
1h
1i
10"
0`!
1m
0k
0o
0n
1q
0p
1r
#560000
0!
0h
0i
#565000
1!
1h
1i
1-"
0."
0/"
00"
0s
0q
1o
0m
0r
1p
1n
1k
1u
1s
0t
1r
0p
0n
0w
0u
0v
1t
1w
1x
1v
0x
#570000
0!
0h
0i
#575000
1!
1h
1i
10"
1m
0k
1n
#580000
0!
0h
0i
#585000
1!
1h
1i
1/"
00"
1`!
0o
0m
0n
1k
1o
1p
1n
0p
#590000
0!
0h
0i
#595000
1!
1h
1i
10"
0`!
1m
0k
0o
0n
1p
#600000
0!
0h
0i
#605000
1!
1h
1i
1."
0/"
00"
1q
1o
0m
0p
1n
1k
0s
0q
0r
1p
0n
1u
1s
0t
1r
0w
0u
0v
1t
1w
1x
1v
0x
#610000
0!
0h
0i
#615000
1!
1h
1i
10"
1m
0k
1n
#620000
0!
0h
0i
#625000
1!
1h
1i
1/"
00"
1`!
0o
0m
0n
1k
1q
1o
0p
1n
0s
0q
0r
1p
1u
1s
0t
1r
0w
0u
0v
1t
1w
1x
1v
0x
#630000
0!
0h
0i
#635000
1!
1h
1i
10"
0`!
1m
0k
0o
0n
1q
0p
0s
0r
1u
0t
0w
0v
1x
#640000
0!
0h
0i
#645000
1!
1h
1i
1*"
0+"
0,"
0-"
0."
0/"
00"
1y
0c!
1w
0u
1f!
1s
0q
1o
0m
0x
1v
1t
1r
1p
1n
1k
0y
1z
1x
0v
0t
0r
0p
0n
0z
#650000
0!
0h
0i
#655000
1!
1h
1i
10"
1m
0k
1n
#660000
0!
0h
0i
#665000
1!
1h
1i
1/"
00"
1`!
0o
0m
0n
1k
1o
1p
1n
0p
#670000
0!
0h
0i
#675000
1!
1h
1i
10"
0`!
1m
0k
0o
0n
1p
#680000
0!
0h
0i
#685000
1!
1h
1i
1."
0/"
00"
0f!
1q
1o
0m
0p
1n
1k
0q
1r
1p
0n
0r
#690000
0!
0h
0i
#695000
1!
1h
1i
10"
1m
0k
1n
#700000
0!
0h
0i
#705000
1!
1h
1i
1/"
00"
1`!
0o
0m
0n
1k
1q
1o
0p
1n
0q
1r
1p
0r
#710000
0!
0h
0i
#715000
1!
1h
1i
10"
0`!
1m
0k
0o
0n
1q
0p
1r
#720000
0!
0h
0i
#725000
1!
1h
1i
1-"
0."
0/"
00"
0s
0q
1o
0m
0r
1p
1n
1k
1s
1t
1r
0p
0n
0t
#730000
0!
0h
0i
#735000
1!
1h
1i
10"
1m
0k
1n
#740000
0!
0h
0i
#745000
1!
1h
1i
1/"
00"
1`!
0o
0m
0n
1k
1o
1p
1n
0p
#750000
0!
0h
0i
#755000
1!
1h
1i
10"
0`!
1m
0k
0o
0n
1p
#760000
0!
0h
0i
#765000
1!
1h
1i
1."
0/"
00"
1q
1o
0m
0p
1n
1k
0s
0q
0r
1p
0n
1s
1t
1r
0t
#770000
0!
0h
0i
#775000
1!
1h
1i
10"
1m
0k
1n
#780000
0!
0h
0i
#785000
1!
1h
1i
1/"
00"
1`!
0o
0m
0n
1k
1q
1o
0p
1n
0s
0q
0r
1p
1s
1t
1r
0t
#790000
0!
0h
0i
#795000
1!
1h
1i
10"
0`!
1m
0k
0o
0n
1q
0p
0s
0r
1t
#800000
0!
0h
0i
#805000
1!
1h
1i
1,"
0-"
0."
0/"
00"
1u
1f!
1s
0q
1o
0m
0t
1r
1p
1n
1k
0u
1v
1t
0r
0p
0n
0v
#810000
0!
0h
0i
#815000
1!
1h
1i
10"
1m
0k
1n
#820000
0!
0h
0i
#825000
1!
1h
1i
1/"
00"
1`!
0o
0m
0n
1k
1o
1p
1n
0p
#830000
0!
0h
0i
#835000
1!
1h
1i
10"
0`!
1m
0k
0o
0n
1p
#840000
0!
0h
0i
#845000
1!
1h
1i
1."
0/"
00"
0f!
1q
1o
0m
0p
1n
1k
0q
1r
1p
0n
0r
#850000
0!
0h
0i
#855000
1!
1h
1i
10"
1m
0k
1n
#860000
0!
0h
0i
#865000
1!
1h
1i
1/"
00"
1`!
0o
0m
0n
1k
1q
1o
0p
1n
0q
1r
1p
0r
#870000
0!
0h
0i
#875000
1!
1h
1i
10"
0`!
1m
0k
0o
0n
1q
0p
1r
#880000
0!
0h
0i
#885000
1!
1h
1i
1-"
0."
0/"
00"
0s
0q
1o
0m
0r
1p
1n
1k
1u
1s
0t
1r
0p
0n
0u
1v
1t
0v
#890000
0!
0h
0i
#895000
1!
1h
1i
10"
1m
0k
1n
#900000
0!
0h
0i
#905000
1!
1h
1i
1/"
00"
1`!
0o
0m
0n
1k
1o
1p
1n
0p
#910000
0!
0h
0i
#915000
1!
1h
1i
10"
0`!
1m
0k
0o
0n
1p
#920000
0!
0h
0i
#925000
1!
1h
1i
1."
0/"
00"
1q
1o
0m
0p
1n
1k
0s
0q
0r
1p
0n
1u
1s
0t
1r
0u
1v
1t
0v
#930000
0!
0h
0i
#935000
1!
1h
1i
10"
1m
0k
1n
#940000
0!
0h
0i
#945000
1!
1h
1i
1/"
00"
1`!
0o
0m
0n
1k
1q
1o
0p
1n
0s
0q
0r
1p
1u
1s
0t
1r
0u
1v
1t
0v
#950000
0!
0h
0i
#955000
1!
1h
1i
10"
0`!
1m
0k
0o
0n
1q
0p
0s
0r
1u
0t
1v
#960000
0!
0h
0i
#965000
1!
1h
1i
1+"
0,"
0-"
0."
0/"
00"
0w
0u
1f!
1s
0q
1o
0m
0v
1t
1r
1p
1n
1k
1y
1w
0x
1v
0t
0r
0p
0n
0y
1z
1x
0z
#970000
0!
0h
0i
#975000
1!
1h
1i
10"
1m
0k
1n
#980000
0!
0h
0i
#985000
1!
1h
1i
1/"
00"
1`!
0o
0m
0n
1k
1o
1p
1n
0p
#990000
0!
0h
0i
#995000
1!
1h
1i
10"
0`!
1m
0k
0o
0n
1p
#1000000
0!
0h
0i
#1005000
1!
1h
1i
1."
0/"
00"
0f!
1q
1o
0m
0p
1n
1k
0q
1r
1p
0n
0r
#1010000
0!
0h
0i
#1015000
1!
1h
1i
10"
1m
0k
1n
#1020000
0!
0h
0i
#1025000
1!
1h
1i
1/"
00"
1`!
0o
0m
0n
1k
1q
1o
0p
1n
0q
1r
1p
0r
#1030000
0!
0h
0i
#1035000
1!
1h
1i
10"
0`!
1m
0k
0o
0n
1q
0p
1r
#1040000
0!
0h
0i
#1045000
1!
1h
1i
1-"
0."
0/"
00"
0s
0q
1o
0m
0r
1p
1n
1k
1s
1t
1r
0p
0n
0t
#1050000
0!
0h
0i
#1055000
1!
1h
1i
10"
1m
0k
1n
#1060000
0!
0h
0i
#1065000
1!
1h
1i
1/"
00"
1`!
0o
0m
0n
1k
1o
1p
1n
0p
#1070000
0!
0h
0i
#1075000
1!
1h
1i
10"
0`!
1m
0k
0o
0n
1p
#1080000
0!
0h
0i
#1085000
1!
1h
1i
1."
0/"
00"
1q
1o
0m
0p
1n
1k
0s
0q
0r
1p
0n
1s
1t
1r
0t
#1090000
0!
0h
0i
#1095000
1!
1h
1i
10"
1m
0k
1n
#1100000
0!
0h
0i
#1105000
1!
1h
1i
1/"
00"
1`!
0o
0m
0n
1k
1q
1o
0p
1n
0s
0q
0r
1p
1s
1t
1r
0t
#1110000
0!
0h
0i
#1115000
1!
1h
1i
10"
0`!
1m
0k
0o
0n
1q
0p
0s
0r
1t
#1120000
0!
0h
0i
#1125000
1!
1h
1i
1,"
0-"
0."
0/"
00"
1c!
1u
1f!
1s
0q
1o
0m
0t
1r
1p
1n
1k
0w
0u
0v
1t
0r
0p
0n
1y
1w
0x
1v
0y
1z
1x
0z
#1130000
0!
0h
0i
#1135000
1!
1h
1i
10"
1m
0k
1n
#1140000
0!
0h
0i
#1145000
1!
1h
1i
1/"
00"
1`!
0o
0m
0n
1k
1o
1p
1n
0p
#1150000
0!
0h
0i
#1155000
1!
1h
1i
10"
0`!
1m
0k
0o
0n
1p
#1160000
0!
0h
0i
#1165000
1!
1h
1i
1."
0/"
00"
0f!
1q
1o
0m
0p
1n
1k
0q
1r
1p
0n
0r
#1170000
0!
0h
0i
#1175000
1!
1h
1i
10"
1m
0k
1n
#1180000
0!
0h
0i
#1185000
1!
1h
1i
1/"
00"
1`!
0o
0m
0n
1k
1q
1o
0p
1n
0q
1r
1p
0r
#1190000
0!
0h
0i
#1195000
1!
1h
1i
10"
0`!
1m
0k
0o
0n
1q
0p
1r
#1200000
0!
0h
0i
#1205000
1!
1h
1i
1-"
0."
0/"
00"
0s
0q
1o
0m
0r
1p
1n
1k
1u
1s
0t
1r
0p
0n
0w
0u
0v
1t
1y
1w
0x
1v
0y
1z
1x
0z
#1210000
0!
0h
0i
#1215000
1!
1h
1i
10"
1m
0k
1n
#1220000
0!
0h
0i
#1225000
1!
1h
1i
1/"
00"
1`!
0o
0m
0n
1k
1o
1p
1n
0p
#1230000
0!
0h
0i
#1235000
1!
1h
1i
10"
0`!
1m
0k
0o
0n
1p
#1240000
0!
0h
0i
#1245000
1!
1h
1i
1."
0/"
00"
1q
1o
0m
0p
1n
1k
0s
0q
0r
1p
0n
1u
1s
0t
1r
0w
0u
0v
1t
1y
1w
0x
1v
0y
1z
1x
0z
#1250000
0!
0h
0i
#1255000
1!
1h
1i
10"
1m
0k
1n
#1260000
0!
0h
0i
#1265000
1!
1h
1i
1/"
00"
1`!
0o
0m
0n
1k
1q
1o
0p
1n
0s
0q
0r
1p
1u
1s
0t
1r
0w
0u
0v
1t
1y
1w
0x
1v
0y
1z
1x
0z
#1270000
0!
0h
0i
#1275000
1!
1h
1i
10"
0`!
1m
0k
0o
0n
1q
0p
0s
0r
1u
0t
0w
0v
1y
0x
1z
#1280000
0!
0h
0i
#1285000
1!
1h
1i
1)"
0*"
0+"
0,"
0-"
0."
0/"
00"
1i!
0{
0y
0c!
1w
0u
1f!
1s
0q
1o
0m
0z
1x
1v
1t
1r
1p
1n
1k
1{
1|
1z
0x
0v
0t
0r
0p
0n
0|
#1290000
0!
0h
0i
#1295000
1!
1h
1i
10"
1m
0k
1n
#1300000
0!
0h
0i
#1305000
1!
1h
1i
1/"
00"
1`!
0o
0m
0n
1k
1o
1p
1n
0p
#1310000
0!
0h
0i
#1315000
1!
1h
1i
10"
0`!
1m
0k
0o
0n
1p
#1320000
0!
0h
0i
#1325000
1!
1h
1i
1."
0/"
00"
0f!
1q
1o
0m
0p
1n
1k
0q
1r
1p
0n
0r
#1330000
0!
0h
0i
#1335000
1!
1h
1i
10"
1m
0k
1n
#1340000
0!
0h
0i
#1345000
1!
1h
1i
1/"
00"
1`!
0o
0m
0n
1k
1q
1o
0p
1n
0q
1r
1p
0r
#1350000
0!
0h
0i
#1355000
1!
1h
1i
10"
0`!
1m
0k
0o
0n
1q
0p
1r
#1360000
0!
0h
0i
#1365000
1!
1h
1i
1-"
0."
0/"
00"
0s
0q
1o
0m
0r
1p
1n
1k
1s
1t
1r
0p
0n
0t
#1370000
0!
0h
0i
#1375000
1!
1h
1i
10"
1m
0k
1n
#1380000
0!
0h
0i
#1385000
1!
1h
1i
1/"
00"
1`!
0o
0m
0n
1k
1o
1p
1n
0p
#1390000
0!
0h
0i
#1395000
1!
1h
1i
10"
0`!
1m
0k
0o
0n
1p
#1400000
0!
0h
0i
#1405000
1!
1h
1i
1."
0/"
00"
1q
1o
0m
0p
1n
1k
0s
0q
0r
1p
0n
1s
1t
1r
0t
#1410000
0!
0h
0i
#1415000
1!
1h
1i
10"
1m
0k
1n
#1420000
0!
0h
0i
#1425000
1!
1h
1i
1/"
00"
1`!
0o
0m
0n
1k
1q
1o
0p
1n
0s
0q
0r
1p
1s
1t
1r
0t
#1430000
0!
0h
0i
#1435000
1!
1h
1i
10"
0`!
1m
0k
0o
0n
1q
0p
0s
0r
1t
#1440000
0!
0h
0i
#1445000
1!
1h
1i
1,"
0-"
0."
0/"
00"
1u
1f!
1s
0q
1o
0m
0t
1r
1p
1n
1k
0u
1v
1t
0r
0p
0n
0v
#1450000
0!
0h
0i
#1455000
1!
1h
1i
10"
1m
0k
1n
#1460000
0!
0h
0i
#1465000
1!
1h
1i
1/"
00"
1`!
0o
0m
0n
1k
1o
1p
1n
0p
#1470000
0!
0h
0i
#1475000
1!
1h
1i
10"
0`!
1m
0k
0o
0n
1p
#1480000
0!
0h
0i
#1485000
1!
1h
1i
1."
0/"
00"
0f!
1q
1o
0m
0p
1n
1k
0q
1r
1p
0n
0r
#1490000
0!
0h
0i
#1495000
1!
1h
1i
10"
1m
0k
1n
#1500000
0!
0h
0i
#1505000
1!
1h
1i
1/"
00"
1`!
0o
0m
0n
1k
1q
1o
0p
1n
0q
1r
1p
0r
#1510000
0!
0h
0i
#1515000
1!
1h
1i
10"
0`!
1m
0k
0o
0n
1q
0p
1r
#1520000
0!
0h
0i
#1525000
1!
1h
1i
1-"
0."
0/"
00"
0s
0q
1o
0m
0r
1p
1n
1k
1u
1s
0t
1r
0p
0n
0u
1v
1t
0v
#1530000
0!
0h
0i
#1535000
1!
1h
1i
10"
1m
0k
1n
#1540000
0!
0h
0i
#1545000
1!
1h
1i
1/"
00"
1`!
0o
0m
0n
1k
1o
1p
1n
0p
#1550000
0!
0h
0i
#1555000
1!
1h
1i
10"
0`!
1m
0k
0o
0n
1p
