MSI Riveter/simulation/qsim/RIVETER.msim.vcd
$comment
	File created using the following command:
		vcd file RIVETER.msim.vcd -direction
$end
$date
	Wed Sep 14 20:27:45 2022
$end
$version
	ModelSim Version 10.5b
$end
$timescale
	1ps
$end

$scope module riveter_vhd_vec_tst $end
$var wire 1 ! A $end
$var wire 1 " B $end
$var wire 1 # Clk $end
$var wire 1 $ En $end
$var wire 1 % En_De $end
$var wire 1 & Input0 $end
$var wire 1 ' Input1 $end
$var wire 1 ( Reg_Debug [1] $end
$var wire 1 ) Reg_Debug [0] $end
$var wire 1 * Rst $end

$scope module i1 $end
$var wire 1 + gnd $end
$var wire 1 , vcc $end
$var wire 1 - unknown $end
$var wire 1 . devoe $end
$var wire 1 / devclrn $end
$var wire 1 0 devpor $end
$var wire 1 1 ww_devoe $end
$var wire 1 2 ww_devclrn $end
$var wire 1 3 ww_devpor $end
$var wire 1 4 ww_Input0 $end
$var wire 1 5 ww_Input1 $end
$var wire 1 6 ww_Clk $end
$var wire 1 7 ww_Rst $end
$var wire 1 8 ww_En $end
$var wire 1 9 ww_A $end
$var wire 1 : ww_B $end
$var wire 1 ; ww_En_De $end
$var wire 1 < ww_Reg_Debug [1] $end
$var wire 1 = ww_Reg_Debug [0] $end
$var wire 1 > \~QUARTUS_CREATED_ADC1~_CHSEL_bus\ [4] $end
$var wire 1 ? \~QUARTUS_CREATED_ADC1~_CHSEL_bus\ [3] $end
$var wire 1 @ \~QUARTUS_CREATED_ADC1~_CHSEL_bus\ [2] $end
$var wire 1 A \~QUARTUS_CREATED_ADC1~_CHSEL_bus\ [1] $end
$var wire 1 B \~QUARTUS_CREATED_ADC1~_CHSEL_bus\ [0] $end
$var wire 1 C \~QUARTUS_CREATED_ADC2~_CHSEL_bus\ [4] $end
$var wire 1 D \~QUARTUS_CREATED_ADC2~_CHSEL_bus\ [3] $end
$var wire 1 E \~QUARTUS_CREATED_ADC2~_CHSEL_bus\ [2] $end
$var wire 1 F \~QUARTUS_CREATED_ADC2~_CHSEL_bus\ [1] $end
$var wire 1 G \~QUARTUS_CREATED_ADC2~_CHSEL_bus\ [0] $end
$var wire 1 H \Rst~inputclkctrl_INCLK_bus\ [3] $end
$var wire 1 I \Rst~inputclkctrl_INCLK_bus\ [2] $end
$var wire 1 J \Rst~inputclkctrl_INCLK_bus\ [1] $end
$var wire 1 K \Rst~inputclkctrl_INCLK_bus\ [0] $end
$var wire 1 L \Clk~inputclkctrl_INCLK_bus\ [3] $end
$var wire 1 M \Clk~inputclkctrl_INCLK_bus\ [2] $end
$var wire 1 N \Clk~inputclkctrl_INCLK_bus\ [1] $end
$var wire 1 O \Clk~inputclkctrl_INCLK_bus\ [0] $end
$var wire 1 P \~QUARTUS_CREATED_GND~I_combout\ $end
$var wire 1 Q \~QUARTUS_CREATED_UNVM~~busy\ $end
$var wire 1 R \~QUARTUS_CREATED_ADC1~~eoc\ $end
$var wire 1 S \~QUARTUS_CREATED_ADC2~~eoc\ $end
$var wire 1 T \A~output_o\ $end
$var wire 1 U \B~output_o\ $end
$var wire 1 V \En_De~output_o\ $end
$var wire 1 W \Reg_Debug[0]~output_o\ $end
$var wire 1 X \Reg_Debug[1]~output_o\ $end
$var wire 1 Y \Clk~input_o\ $end
$var wire 1 Z \Clk~inputclkctrl_outclk\ $end
$var wire 1 [ \Input1~input_o\ $end
$var wire 1 \ \Input0~input_o\ $end
$var wire 1 ] \U2|Regist[1]~1_combout\ $end
$var wire 1 ^ \En~input_o\ $end
$var wire 1 _ \U3|y~0_combout\ $end
$var wire 1 ` \EnIn~0_combout\ $end
$var wire 1 a \U2|Regist[0]~0_combout\ $end
$var wire 1 b \Rst~input_o\ $end
$var wire 1 c \Rst~inputclkctrl_outclk\ $end
$var wire 1 d \U2|Regist[1]~2_combout\ $end
$var wire 1 e \U1|Mux15~0_combout\ $end
$var wire 1 f \U1|Mux1~0_combout\ $end
$var wire 1 g \EnIn~1_combout\ $end
$var wire 1 h \U2|Regist\ [7] $end
$var wire 1 i \U2|Regist\ [6] $end
$var wire 1 j \U2|Regist\ [5] $end
$var wire 1 k \U2|Regist\ [4] $end
$var wire 1 l \U2|Regist\ [3] $end
$var wire 1 m \U2|Regist\ [2] $end
$var wire 1 n \U2|Regist\ [1] $end
$var wire 1 o \U2|Regist\ [0] $end
$var wire 1 p \ALT_INV_Rst~inputclkctrl_outclk\ $end
$var wire 1 q \U1|ALT_INV_Mux15~0_combout\ $end
$upscope $end
$upscope $end
$enddefinitions $end
#0
$dumpvars
0!
0"
0#
1$
1%
0&
0'
0*
0+
1,
x-
1.
1/
10
11
12
13
04
05
06
07
18
09
0:
1;
0P
zQ
zR
zS
0T
0U
1V
0W
0X
0Y
0Z
0[
0\
1]
1^
1_
1`
1a
0b
0c
0d
1e
0f
1g
1p
0q
0<
0=
xh
xi
xj
xk
xl
xm
0n
0o
1L
1M
1N
0O
1H
1I
1J
0K
0>
0?
0@
0A
0B
0C
0D
0E
0F
0G
0(
0)
$end
#5000
1#
16
1Y
1O
1Z
1o
1W
0_
0`
0e
1q
1=
0g
1)
1T
0V
19
0;
1!
0%
#10000
0#
06
0Y
0O
0Z
#15000
1#
16
1Y
1O
1Z
#20000
0#
1*
06
17
1b
0Y
1K
0O
0Z
1c
0p
0o
0W
1_
1`
0a
1e
0q
0=
1g
1a
0)
0T
1V
09
1;
0!
1%
#25000
1#
16
1Y
1O
1Z
#30000
0#
0*
06
07
0b
0Y
0K
0O
0Z
0c
1p
#35000
1#
16
1Y
1O
1Z
1o
1W
0_
0`
0e
1q
1=
0g
1)
1T
0V
19
0;
1!
0%
#40000
0#
06
0Y
0O
0Z
#45000
1#
16
1Y
1O
1Z
#50000
0#
06
0Y
0O
0Z
#55000
1#
16
1Y
1O
1Z
#60000
0#
06
0Y
0O
0Z
#65000
1#
16
1Y
1O
1Z
#70000
0#
06
0Y
0O
0Z
#75000
1#
16
1Y
1O
1Z
#80000
0#
06
0Y
0O
0Z
#85000
1#
16
1Y
1O
1Z
#90000
0#
06
0Y
0O
0Z
#95000
1#
16
1Y
1O
1Z
#100000
0#
1'
06
15
1[
0Y
0O
0]
1`
0a
1g
1d
0Z
1V
1;
1%
#105000
1#
16
1Y
1O
1Z
0o
1n
1X
0W
0`
1f
1<
0=
1U
0g
0)
1(
1:
0V
1"
0;
0%
#110000
0#
06
0Y
0O
0Z
#115000
1#
16
1Y
1O
1Z
#120000
0#
06
0Y
0O
0Z
#125000
1#
16
1Y
1O
1Z
#130000
0#
0'
06
05
0[
0Y
0O
1]
0Z
#135000
1#
16
1Y
1O
1Z
#140000
0#
06
0Y
0O
0Z
#145000
1#
16
1Y
1O
1Z
#150000
0#
06
0Y
0O
0Z
#155000
1#
16
1Y
1O
1Z
#160000
0#
06
0Y
0O
0Z
#165000
1#
16
1Y
1O
1Z
#170000
0#
06
0Y
0O
0Z
#175000
1#
16
1Y
1O
1Z
#180000
0#
06
0Y
0O
0Z
#185000
1#
16
1Y
1O
1Z
#190000
0#
06
0Y
0O
0Z
#195000
1#
16
1Y
1O
1Z
#200000
0#
06
0Y
0O
0Z
#205000
1#
16
1Y
1O
1Z
#210000
0#
06
0Y
0O
0Z
#215000
1#
16
1Y
1O
1Z
#220000
0#
1'
1&
06
15
14
1\
1[
0Y
0O
1_
1`
1g
1a
0Z
1V
1;
1%
#225000
1#
16
1Y
1O
1Z
1o
1W
0_
0`
0f
1=
0U
0g
1)
0:
0V
0"
0;
0%
#230000
0#
06
0Y
0O
0Z
#235000
1#
16
1Y
1O
1Z
#240000
0#
0'
0&
06
05
04
0\
0[
0Y
0O
0Z
#245000
1#
16
1Y
1O
1Z
#250000
0#
06
0Y
0O
0Z
#255000
1#
16
1Y
1O
1Z
#260000
0#
06
0Y
0O
0Z
#265000
1#
16
1Y
1O
1Z
#270000
0#
06
0Y
0O
0Z
#275000
1#
16
1Y
1O
1Z
#280000
0#
06
0Y
0O
0Z
#285000
1#
16
1Y
1O
1Z
#290000
0#
1'
06
15
1[
0Y
0O
0]
1`
0a
1g
0d
0Z
1V
1;
1%
#295000
1#
16
1Y
1O
1Z
0o
0n
0X
0W
0`
1e
0q
0<
0=
0g
0)
0(
0T
0V
09
0;
0!
0%
#300000
0#
06
0Y
0O
0Z
#305000
1#
16
1Y
1O
1Z
#310000
0#
06
0Y
0O
0Z
#315000
1#
16
1Y
1O
1Z
#320000
0#
06
0Y
0O
0Z
#325000
1#
16
1Y
1O
1Z
#330000
0#
06
0Y
0O
0Z
#335000
1#
16
1Y
1O
1Z
#340000
0#
06
0Y
0O
0Z
#345000
1#
16
1Y
1O
1Z
#350000
0#
06
0Y
0O
0Z
#355000
1#
16
1Y
1O
1Z
#360000
0#
06
0Y
0O
0Z
#365000
1#
16
1Y
1O
1Z
#370000
0#
06
0Y
0O
0Z
#375000
1#
16
1Y
1O
1Z
#380000
0#
06
0Y
0O
0Z
#385000
1#
16
1Y
1O
1Z
#390000
0#
0'
06
05
0[
0Y
0O
1]
1_
1`
1g
1a
0Z
1V
1;
1%
#395000
1#
16
1Y
1O
1Z
1o
1W
0_
0`
0e
1q
1=
0g
1)
1T
0V
19
0;
1!
0%
#400000
0#
06
0Y
0O
0Z
#405000
1#
16
1Y
1O
1Z
#410000
0#
06
0Y
0O
0Z
#415000
1#
16
1Y
1O
1Z
#420000
0#
06
0Y
0O
0Z
#425000
1#
16
1Y
1O
1Z
#430000
0#
06
0Y
0O
0Z
#435000
1#
16
1Y
1O
1Z
#440000
0#
06
0Y
0O
0Z
#445000
1#
16
1Y
1O
1Z
#450000
0#
06
0Y
0O
0Z
#455000
1#
16
1Y
1O
1Z
#460000
0#
06
0Y
0O
0Z
#465000
1#
16
1Y
1O
1Z
#470000
0#
06
0Y
0O
0Z
#475000
1#
16
1Y
1O
1Z
#480000
0#
06
0Y
0O
0Z
#485000
1#
16
1Y
1O
1Z
#490000
0#
06
0Y
0O
0Z
#495000
1#
16
1Y
1O
1Z
#500000
0#
06
0Y
0O
0Z
#505000
1#
16
1Y
1O
1Z
#510000
0#
06
0Y
0O
0Z
#515000
1#
16
1Y
1O
1Z
#520000
0#
06
0Y
0O
0Z
#525000
1#
16
1Y
1O
1Z
#530000
0#
06
0Y
0O
0Z
#535000
1#
16
1Y
1O
1Z
#540000
0#
06
0Y
0O
0Z
#545000
1#
16
1Y
1O
1Z
#550000
0#
06
0Y
0O
0Z
#555000
1#
16
1Y
1O
1Z
#560000
0#
06
0Y
0O
0Z
#565000
1#
16
1Y
1O
1Z
#570000
0#
06
0Y
0O
0Z
#575000
1#
16
1Y
1O
1Z
#580000
0#
06
0Y
0O
0Z
#585000
1#
16
1Y
1O
1Z
#590000
0#
06
0Y
0O
0Z
#595000
1#
16
1Y
1O
1Z
#600000
0#
06
0Y
0O
0Z
#605000
1#
16
1Y
1O
1Z
#610000
0#
06
0Y
0O
0Z
#615000
1#
16
1Y
1O
1Z
#620000
0#
06
0Y
0O
0Z
#625000
1#
16
1Y
1O
1Z
#630000
0#
06
0Y
0O
0Z
#635000
1#
16
1Y
1O
1Z
#640000
0#
06
0Y
0O
0Z
#645000
1#
16
1Y
1O
1Z
#650000
0#
06
0Y
0O
0Z
#655000
1#
16
1Y
1O
1Z
#660000
0#
06
0Y
0O
0Z
#665000
1#
16
1Y
1O
1Z
#670000
0#
06
0Y
0O
0Z
#675000
1#
16
1Y
1O
1Z
#680000
0#
06
0Y
0O
0Z
#685000
1#
16
1Y
1O
1Z
#690000
0#
06
0Y
0O
0Z
#695000
1#
16
1Y
1O
1Z
#700000
0#
06
0Y
0O
0Z
#705000
1#
16
1Y
1O
1Z
#710000
0#
06
0Y
0O
0Z
#715000
1#
16
1Y
1O
1Z
#720000
0#
06
0Y
0O
0Z
#725000
1#
16
1Y
1O
1Z
#730000
0#
06
0Y
0O
0Z
#735000
1#
16
1Y
1O
1Z
#740000
0#
06
0Y
0O
0Z
#745000
1#
16
1Y
1O
1Z
#750000
0#
06
0Y
0O
0Z
#755000
1#
16
1Y
1O
1Z
#760000
0#
06
0Y
0O
0Z
#765000
1#
16
1Y
1O
1Z
#770000
0#
06
0Y
0O
0Z
#775000
1#
16
1Y
1O
1Z
#780000
0#
06
0Y
0O
0Z
#785000
1#
16
1Y
1O
1Z
#790000
0#
06
0Y
0O
0Z
#795000
1#
16
1Y
1O
1Z
#800000
0#
06
0Y
0O
0Z
#805000
1#
16
1Y
1O
1Z
#810000
0#
06
0Y
0O
0Z
#815000
1#
16
1Y
1O
1Z
#820000
0#
06
0Y
0O
0Z
#825000
1#
16
1Y
1O
1Z
#830000
0#
06
0Y
0O
0Z
#835000
1#
16
1Y
1O
1Z
#840000
0#
06
0Y
0O
0Z
#845000
1#
16
1Y
1O
1Z
#850000
0#
06
0Y
0O
0Z
#855000
1#
16
1Y
1O
1Z
#860000
0#
06
0Y
0O
0Z
#865000
1#
16
1Y
1O
1Z
#870000
0#
06
0Y
0O
0Z
#875000
1#
16
1Y
1O
1Z
#880000
0#
06
0Y
0O
0Z
#885000
1#
16
1Y
1O
1Z
#890000
0#
06
0Y
0O
0Z
#895000
1#
16
1Y
1O
1Z
#900000
0#
06
0Y
0O
0Z
#905000
1#
16
1Y
1O
1Z
#910000
0#
06
0Y
0O
0Z
#915000
1#
16
1Y
1O
1Z
#920000
0#
06
0Y
0O
0Z
#925000
1#
16
1Y
1O
1Z
#930000
0#
06
0Y
0O
0Z
#935000
1#
16
1Y
1O
1Z
#940000
0#
06
0Y
0O
0Z
#945000
1#
16
1Y
1O
1Z
#950000
0#
06
0Y
0O
0Z
#955000
1#
16
1Y
1O
1Z
#960000
0#
06
0Y
0O
0Z
#965000
1#
16
1Y
1O
1Z
#970000
0#
06
0Y
0O
0Z
#975000
1#
16
1Y
1O
1Z
#980000
0#
06
0Y
0O
0Z
#985000
1#
16
1Y
1O
1Z
#990000
0#
06
0Y
0O
0Z
#995000
1#
16
1Y
1O
1Z
