UART/uUartControl/simulation/qsim/uUartControl.msim.vcd
$comment
	File created using the following command:
		vcd file uUartControl.msim.vcd -direction
$end
$date
	Sun Sep 11 15:30:57 2022
$end
$version
	ModelSim Version 10.5b
$end
$timescale
	1ps
$end

$scope module uUartControl_vlg_vec_tst $end
$var reg 1 ! Clk $end
$var reg 8 " Din [7:0] $end
$var reg 1 # Rst $end
$var reg 1 $ confmode $end
$var reg 1 % divClk $end
$var reg 1 & send $end
$var wire 1 ' ControlLines [6] $end
$var wire 1 ( ControlLines [5] $end
$var wire 1 ) ControlLines [4] $end
$var wire 1 * ControlLines [3] $end
$var wire 1 + ControlLines [2] $end
$var wire 1 , ControlLines [1] $end
$var wire 1 - ControlLines [0] $end
$var wire 1 . CurrentInsout [13] $end
$var wire 1 / CurrentInsout [12] $end
$var wire 1 0 CurrentInsout [11] $end
$var wire 1 1 CurrentInsout [10] $end
$var wire 1 2 CurrentInsout [9] $end
$var wire 1 3 CurrentInsout [8] $end
$var wire 1 4 CurrentInsout [7] $end
$var wire 1 5 CurrentInsout [6] $end
$var wire 1 6 CurrentInsout [5] $end
$var wire 1 7 CurrentInsout [4] $end
$var wire 1 8 CurrentInsout [3] $end
$var wire 1 9 CurrentInsout [2] $end
$var wire 1 : CurrentInsout [1] $end
$var wire 1 ; CurrentInsout [0] $end
$var wire 1 < countoud [3] $end
$var wire 1 = countoud [2] $end
$var wire 1 > countoud [1] $end
$var wire 1 ? countoud [0] $end
$var wire 1 @ inputout [3] $end
$var wire 1 A inputout [2] $end
$var wire 1 B inputout [1] $end
$var wire 1 C inputout [0] $end

$scope module i1 $end
$var wire 1 D gnd $end
$var wire 1 E vcc $end
$var wire 1 F unknown $end
$var tri1 1 G devclrn $end
$var tri1 1 H devpor $end
$var tri1 1 I devoe $end
$var wire 1 J Din[4]~input_o $end
$var wire 1 K Din[5]~input_o $end
$var wire 1 L Din[6]~input_o $end
$var wire 1 M Din[7]~input_o $end
$var wire 1 N ~QUARTUS_CREATED_GND~I_combout $end
$var wire 1 O ~QUARTUS_CREATED_UNVM~~busy $end
$var wire 1 P ~QUARTUS_CREATED_ADC1~~eoc $end
$var wire 1 Q ~QUARTUS_CREATED_ADC2~~eoc $end
$var wire 1 R ControlLines[0]~output_o $end
$var wire 1 S ControlLines[1]~output_o $end
$var wire 1 T ControlLines[2]~output_o $end
$var wire 1 U ControlLines[3]~output_o $end
$var wire 1 V ControlLines[4]~output_o $end
$var wire 1 W ControlLines[5]~output_o $end
$var wire 1 X ControlLines[6]~output_o $end
$var wire 1 Y inputout[0]~output_o $end
$var wire 1 Z inputout[1]~output_o $end
$var wire 1 [ inputout[2]~output_o $end
$var wire 1 \ inputout[3]~output_o $end
$var wire 1 ] CurrentInsout[0]~output_o $end
$var wire 1 ^ CurrentInsout[1]~output_o $end
$var wire 1 _ CurrentInsout[2]~output_o $end
$var wire 1 ` CurrentInsout[3]~output_o $end
$var wire 1 a CurrentInsout[4]~output_o $end
$var wire 1 b CurrentInsout[5]~output_o $end
$var wire 1 c CurrentInsout[6]~output_o $end
$var wire 1 d CurrentInsout[7]~output_o $end
$var wire 1 e CurrentInsout[8]~output_o $end
$var wire 1 f CurrentInsout[9]~output_o $end
$var wire 1 g CurrentInsout[10]~output_o $end
$var wire 1 h CurrentInsout[11]~output_o $end
$var wire 1 i CurrentInsout[12]~output_o $end
$var wire 1 j CurrentInsout[13]~output_o $end
$var wire 1 k countoud[0]~output_o $end
$var wire 1 l countoud[1]~output_o $end
$var wire 1 m countoud[2]~output_o $end
$var wire 1 n countoud[3]~output_o $end
$var wire 1 o Clk~input_o $end
$var wire 1 p Clk~inputclkctrl_outclk $end
$var wire 1 q Din[0]~input_o $end
$var wire 1 r Rst~input_o $end
$var wire 1 s divClk~input_o $end
$var wire 1 t send~input_o $end
$var wire 1 u confmode~input_o $end
$var wire 1 v Equal0~1_combout $end
$var wire 1 w address[1]~4_combout $end
$var wire 1 x address[1]~5_combout $end
$var wire 1 y divClk~inputclkctrl_outclk $end
$var wire 1 z count[0]~0_combout $end
$var wire 1 { count~1_combout $end
$var wire 1 | count~2_combout $end
$var wire 1 } count~3_combout $end
$var wire 1 ~ count~4_combout $end
$var wire 1 !! count~5_combout $end
$var wire 1 "! count~6_combout $end
$var wire 1 #! countout~0_combout $end
$var wire 1 $! countout~q $end
$var wire 1 %! Equal0~0_combout $end
$var wire 1 &! address[0]~1_combout $end
$var wire 1 '! address[0]~2_combout $end
$var wire 1 (! address[0]~0_combout $end
$var wire 1 )! address[0]~3_combout $end
$var wire 1 *! uMem~2_combout $end
$var wire 1 +! ControlLines[0]~reg0feeder_combout $end
$var wire 1 ,! ControlLines[0]~reg0_q $end
$var wire 1 -! Din[1]~input_o $end
$var wire 1 .! selection[1]~feeder_combout $end
$var wire 1 /! ControlLines[1]~reg0feeder_combout $end
$var wire 1 0! ControlLines[1]~reg0_q $end
$var wire 1 1! Din[2]~input_o $end
$var wire 1 2! ControlLines[2]~reg0feeder_combout $end
$var wire 1 3! ControlLines[2]~reg0_q $end
$var wire 1 4! Din[3]~input_o $end
$var wire 1 5! selection[3]~feeder_combout $end
$var wire 1 6! ControlLines[3]~reg0feeder_combout $end
$var wire 1 7! ControlLines[3]~reg0_q $end
$var wire 1 8! always0~0_combout $end
$var wire 1 9! ControlLines[4]~0_combout $end
$var wire 1 :! ControlLines[4]~reg0_q $end
$var wire 1 ;! uMem~1_combout $end
$var wire 1 <! ControlLines[5]~reg0_q $end
$var wire 1 =! uMem~0_combout $end
$var wire 1 >! address [1] $end
$var wire 1 ?! address [0] $end
$var wire 1 @! count [3] $end
$var wire 1 A! count [2] $end
$var wire 1 B! count [1] $end
$var wire 1 C! count [0] $end
$var wire 1 D! selection [3] $end
$var wire 1 E! selection [2] $end
$var wire 1 F! selection [1] $end
$var wire 1 G! selection [0] $end
$upscope $end
$upscope $end
$enddefinitions $end
#0
$dumpvars
0!
b0 "
0#
0$
0%
0&
0-
0,
0+
0*
0)
0(
1'
0;
0:
09
18
07
16
15
04
03
02
01
00
0/
1.
0?
0>
0=
0<
0C
0B
0A
0@
0D
1E
xF
1G
1H
1I
0J
0K
0L
0M
0N
zO
zP
zQ
0R
0S
0T
0U
0V
0W
1X
0Y
0Z
0[
0\
0]
0^
0_
1`
0a
1b
1c
0d
0e
0f
0g
0h
0i
1j
0k
0l
0m
0n
0o
0p
0q
0r
0s
0t
0u
0v
1w
0x
0y
1z
0{
0|
1}
0~
0!!
0"!
0#!
0$!
1%!
1&!
0'!
0(!
0)!
0*!
0+!
0,!
0-!
0.!
0/!
00!
01!
02!
03!
04!
05!
06!
07!
18!
09!
0:!
0;!
0<!
0=!
0?!
0>!
0C!
0B!
0A!
0@!
0G!
0F!
0E!
0D!
$end
#5000
1!
1o
1p
#10000
0!
0o
0p
#15000
1%
1!
1o
1p
1s
1y
1Z
0%!
1B
#20000
0!
0o
0p
#25000
1!
1o
1p
#30000
0%
0!
0o
0p
0s
0y
0Z
1%!
0B
#35000
1!
1o
1p
#40000
1#
0!
0o
1r
0p
#45000
1%
1!
1o
1p
1s
1y
1Z
0%!
1B
#50000
0!
0o
0p
#55000
1!
1o
1p
#60000
0#
0%
0!
0o
0r
0p
0s
0y
0Z
1%!
0B
#65000
1!
1o
1p
#70000
0!
0o
0p
#75000
1%
1!
1o
1p
1s
1y
1Z
0%!
1B
#80000
0!
0o
0p
#85000
1!
1o
1p
#90000
0%
0!
0o
0p
0s
0y
0Z
1%!
0B
#95000
1!
1o
1p
#100000
0!
0o
0p
#105000
1%
1!
1o
1p
1s
1y
1Z
0%!
1B
#110000
0!
0o
0p
#115000
1!
1o
1p
#120000
0%
0!
0o
0p
0s
0y
0Z
1%!
0B
#125000
1!
1o
1p
#130000
0!
0o
0p
#135000
1%
1!
1o
1p
1s
1y
1Z
0%!
1B
#140000
0!
0o
0p
#145000
1!
1o
1p
#150000
0%
0!
0o
0p
0s
0y
0Z
1%!
0B
#155000
1!
1o
1p
#160000
0!
0o
0p
#165000
1%
1!
1o
1p
1s
1y
1Z
0%!
1B
#170000
0!
0o
0p
#175000
1!
1o
1p
#180000
1$
0%
0!
0o
0p
0s
1u
0y
1\
0Z
1%!
1v
0B
1@
1(!
1'!
0w
1)!
#185000
1!
1o
1p
1?!
0c
0b
1e
0(!
0v
13
06
05
08!
1*!
1h
1a
1g
0`
1(!
0'!
08
11
17
10
0)!
19!
1)!
#190000
0!
0o
0p
#195000
1%
1!
1o
1p
1s
1y
1Z
0%!
1B
1:!
1V
1)
#200000
0!
0o
0p
#205000
1!
1o
1p
#210000
0%
0!
0o
0p
0s
0y
0Z
1%!
0B
#215000
1!
1o
1p
#220000
0!
0o
0p
#225000
1%
1!
1o
1p
1s
1y
1Z
0%!
1B
#230000
0!
0o
0p
#235000
1!
1o
1p
#240000
0$
0%
0!
0o
0p
0s
0u
0y
0\
0Z
1%!
1v
0B
0@
0(!
1'!
0)!
#245000
1!
1o
1p
0?!
1c
1b
0e
1(!
0v
03
16
15
18!
0*!
0h
0a
0g
1`
0(!
0'!
1w
18
01
07
00
1)!
09!
0)!
#250000
0!
0o
0p
#255000
1%
1!
1o
1p
1s
1y
1Z
0%!
1B
0:!
0V
0)
#260000
0!
0o
0p
#265000
1!
1o
1p
#270000
0%
0!
0o
0p
0s
0y
0Z
1%!
0B
#275000
1!
1o
1p
#280000
0!
0o
0p
#285000
1%
1!
1o
1p
1s
1y
1Z
0%!
1B
#290000
0!
0o
0p
#295000
1!
1o
1p
#300000
0%
0!
0o
0p
0s
0y
0Z
1%!
0B
#305000
1!
1o
1p
#310000
0!
0o
0p
#315000
1%
1!
1o
1p
1s
1y
1Z
0%!
1B
#320000
0!
0o
0p
#325000
1!
1o
1p
#330000
0%
0!
0o
0p
0s
0y
0Z
1%!
0B
#335000
1!
1o
1p
#340000
0!
0o
0p
#345000
1%
1!
1o
1p
1s
1y
1Z
0%!
1B
#350000
0!
0o
0p
#355000
1!
1o
1p
#360000
b100 "
b110 "
b111 "
0%
0!
0o
11!
1-!
1q
0p
0s
0y
0Z
1%!
0B
1.!
#365000
1!
1o
1p
#370000
0!
0o
0p
#375000
1%
1!
1o
1p
1s
1y
1Z
0%!
1B
#380000
1$
0!
0o
0p
1u
1\
1v
1@
#385000
1!
1o
1p
#390000
0%
0!
0o
0p
0s
0y
0Z
1%!
0B
1(!
1'!
0w
1)!
#395000
1!
1o
1p
1?!
0c
0b
1e
0(!
0v
13
06
05
08!
1*!
1h
1a
1g
0`
1(!
0'!
08
11
17
10
0)!
19!
1)!
#400000
0$
0!
0o
0p
0u
0\
1v
0@
0(!
1'!
0)!
#405000
1%
1!
1o
1p
1s
1y
1Z
0%!
1B
1(!
0'!
1)!
1E!
1F!
1G!
1:!
0?!
1c
1b
0e
1V
0(!
1w
0v
1)
03
16
15
12!
1/!
1+!
18!
0*!
0)!
0h
0a
0g
1`
18
01
07
00
09!
#410000
0!
0o
0p
#415000
1!
1o
1p
0:!
13!
10!
1,!
1R
1S
1T
0V
0)
1+
1,
1-
#420000
0%
0!
0o
0p
0s
0y
0Z
1%!
0B
#425000
1!
1o
1p
#430000
0!
0o
0p
#435000
1%
1!
1o
1p
1s
1y
1Z
0%!
1B
#440000
0!
0o
0p
#445000
1!
1o
1p
#450000
0%
0!
0o
0p
0s
0y
0Z
1%!
0B
#455000
1!
1o
1p
#460000
0!
0o
0p
#465000
1%
1!
1o
1p
1s
1y
1Z
0%!
1B
#470000
0!
0o
0p
#475000
1!
1o
1p
#480000
0%
0!
0o
0p
0s
0y
0Z
1%!
0B
#485000
1!
1o
1p
#490000
0!
0o
0p
#495000
1%
1!
1o
1p
1s
1y
1Z
0%!
1B
#500000
0!
0o
0p
#505000
1!
1o
1p
#510000
0%
0!
0o
0p
0s
0y
0Z
1%!
0B
#515000
1!
1o
1p
#520000
1&
0!
0o
0p
1t
1[
0&!
1A
1'!
1x
#525000
1%
1!
1o
1p
1s
1y
1Z
0%!
1B
0'!
0x
1>!
1f
1&!
1%!
12
1;!
08!
1{
1x
1h
0`
1^
1d
1i
1/
14
1:
08
10
19!
#530000
0!
0o
0p
#535000
1!
1o
1p
1<!
1:!
1V
1W
1(
1)
#540000
0&
0%
0!
0o
0p
0s
0t
0y
0[
0Z
0%!
1v
0B
0A
#545000
1!
1o
1p
#550000
0!
0o
0p
#555000
1%
1!
1o
1p
1s
1y
1Z
1%!
1B
1(!
1'!
1)!
1C!
1k
0z
1?
1|
0{
#560000
0!
0o
0p
#565000
1!
1o
1p
1?!
0c
0b
1e
0(!
0%!
0w
13
06
05
1=!
0;!
0^
0d
0i
1]
0'!
1;
0/
04
0:
0)!
0x
1)!
1x
#570000
0%
0!
0o
0p
0s
0y
0Z
0B
#575000
1!
1o
1p
0<!
0W
0(
#580000
0!
0o
0p
#585000
1%
1!
1o
1p
1s
1y
1Z
1B
1B!
0C!
0k
1l
1>
0?
1{
#590000
0!
0o
0p
#595000
1!
1o
1p
#600000
0%
0!
0o
0p
0s
0y
0Z
0B
#605000
1!
1o
1p
#610000
0!
0o
0p
#615000
1%
1!
1o
1p
1s
1y
1Z
1B
1C!
1k
0}
1?
0|
0{
1~
#620000
0!
0o
0p
#625000
1!
1o
1p
#630000
0%
0!
0o
0p
0s
0y
0Z
0B
#635000
1!
1o
1p
#640000
0!
0o
0p
#645000
1%
1!
1o
1p
1s
1y
1Z
1B
1A!
0B!
0C!
0k
0l
1m
1}
1=
0>
0?
0~
1{
1~
#650000
0!
0o
0p
#655000
1!
1o
1p
#660000
0%
0!
0o
0p
0s
0y
0Z
0B
#665000
1!
1o
1p
#670000
0!
0o
0p
#675000
1%
1!
1o
1p
1s
1y
1Z
1B
1C!
1k
1!!
1?
1|
0{
#680000
0!
0o
0p
#685000
1!
1o
1p
#690000
0%
0!
0o
0p
0s
0y
0Z
0B
#695000
1!
1o
1p
#700000
0!
0o
0p
#705000
1%
1!
1o
1p
1s
1y
1Z
1B
1B!
0C!
0k
1l
0!!
1>
0?
1"!
1{
0"!
#710000
0!
0o
0p
#715000
1!
1o
1p
#720000
0%
0!
0o
0p
0s
0y
0Z
0B
#725000
1!
1o
1p
#730000
0!
0o
0p
#735000
1%
1!
1o
1p
1s
1y
1Z
1B
1C!
1k
1!!
0}
1?
0|
0{
1"!
0~
#740000
0!
0o
0p
#745000
1!
1o
1p
#750000
0%
0!
0o
0p
0s
0y
0Z
0B
#755000
1!
1o
1p
#760000
0!
0o
0p
#765000
1%
1!
1o
1p
1s
1y
1Z
1B
1@!
0A!
0B!
0C!
0k
0l
0m
1n
1z
1}
1<
0=
0>
0?
1#!
0#!
1{
#770000
0!
0o
0p
#775000
1!
1o
1p
#780000
0%
0!
0o
0p
0s
0y
0Z
0B
#785000
1!
1o
1p
#790000
0!
0o
0p
#795000
1%
1!
1o
1p
1s
1y
1Z
1B
1C!
1k
0!!
0z
1?
0{
0"!
1#!
#800000
0!
0o
0p
#805000
1!
1o
1p
#810000
0%
0!
0o
0p
0s
0y
0Z
0B
#815000
1!
1o
1p
#820000
0!
0o
0p
#825000
1%
1!
1o
1p
1s
1y
1Z
1B
1$!
0@!
0C!
0k
0n
1Y
1z
1C
0<
0?
0#!
1{
#830000
0!
0o
0p
#835000
1!
1o
1p
#840000
0%
0!
0o
0p
0s
0y
0Z
1%!
0B
1'!
0)!
0x
#845000
1!
1o
1p
0?!
0>!
1c
1b
0f
0e
1(!
0%!
0v
03
02
16
15
0=!
18!
0{
0h
1`
0]
0(!
0'!
1w
0;
18
00
1)!
09!
0)!
#850000
0!
0o
0p
#855000
1%
1!
1o
1p
1s
1y
1Z
1B
0:!
0$!
0Y
0V
0)
0C
#860000
0!
0o
0p
#865000
1!
1o
1p
#870000
0%
0!
0o
0p
0s
0y
0Z
1%!
0B
#875000
1!
1o
1p
#880000
0!
0o
0p
#885000
1%
1!
1o
1p
1s
1y
1Z
0%!
1B
#890000
0!
0o
0p
#895000
1!
1o
1p
#900000
0%
0!
0o
0p
0s
0y
0Z
1%!
0B
#905000
1!
1o
1p
#910000
0!
0o
0p
#915000
1%
1!
1o
1p
1s
1y
1Z
0%!
1B
#920000
0!
0o
0p
#925000
1!
1o
1p
#930000
0%
0!
0o
0p
0s
0y
0Z
1%!
0B
#935000
1!
1o
1p
#940000
0!
0o
0p
#945000
1%
1!
1o
1p
1s
1y
1Z
0%!
1B
#950000
0!
0o
0p
#955000
1!
1o
1p
#960000
0%
0!
0o
0p
0s
0y
0Z
1%!
0B
#965000
1!
1o
1p
#970000
0!
0o
0p
#975000
1%
1!
1o
1p
1s
1y
1Z
0%!
1B
#980000
0!
0o
0p
#985000
1!
1o
1p
#990000
0%
0!
0o
0p
0s
0y
0Z
1%!
0B
#995000
1!
1o
1p
