UART/Shift Register PISO/simulation/qsim/PISOSRegister.msim.vcd
$comment
	File created using the following command:
		vcd file PISOSRegister.msim.vcd -direction
$end
$date
	Tue Sep 06 21:50:37 2022
$end
$version
	ModelSim Version 10.5b
$end
$timescale
	1ps
$end

$scope module PISOSRegister_vlg_vec_tst $end
$var reg 1 ! Clk $end
$var reg 9 " Din [8:0] $end
$var reg 1 # Rst $end
$var reg 1 $ WR $end
$var wire 1 % out $end

$scope module i1 $end
$var wire 1 & gnd $end
$var wire 1 ' vcc $end
$var wire 1 ( unknown $end
$var tri1 1 ) devclrn $end
$var tri1 1 * devpor $end
$var tri1 1 + devoe $end
$var wire 1 , Din[8]~input_o $end
$var wire 1 - ~QUARTUS_CREATED_GND~I_combout $end
$var wire 1 . ~QUARTUS_CREATED_UNVM~~busy $end
$var wire 1 / ~QUARTUS_CREATED_ADC1~~eoc $end
$var wire 1 0 out~output_o $end
$var wire 1 1 Clk~input_o $end
$var wire 1 2 Clk~inputclkctrl_outclk $end
$var wire 1 3 WR~input_o $end
$var wire 1 4 Rst~input_o $end
$var wire 1 5 Din[0]~input_o $end
$var wire 1 6 Din[1]~input_o $end
$var wire 1 7 Din[2]~input_o $end
$var wire 1 8 Din[3]~input_o $end
$var wire 1 9 Din[4]~input_o $end
$var wire 1 : Din[5]~input_o $end
$var wire 1 ; Din[6]~input_o $end
$var wire 1 < Din[7]~input_o $end
$var wire 1 = flips~7_combout $end
$var wire 1 > flips~6_combout $end
$var wire 1 ? flips~5_combout $end
$var wire 1 @ flips~4_combout $end
$var wire 1 A flips~3_combout $end
$var wire 1 B flips~2_combout $end
$var wire 1 C flips~1_combout $end
$var wire 1 D flips~0_combout $end
$var wire 1 E out~0_combout $end
$var wire 1 F out~reg0_q $end
$var wire 1 G flips [8] $end
$var wire 1 H flips [7] $end
$var wire 1 I flips [6] $end
$var wire 1 J flips [5] $end
$var wire 1 K flips [4] $end
$var wire 1 L flips [3] $end
$var wire 1 M flips [2] $end
$var wire 1 N flips [1] $end
$var wire 1 O flips [0] $end
$upscope $end
$upscope $end
$enddefinitions $end
#0
$dumpvars
0!
b0 "
0#
0$
0%
0&
1'
x(
1)
1*
1+
0,
0-
z.
z/
00
01
02
03
04
05
06
07
08
09
0:
0;
0<
0=
0>
0?
0@
0A
0B
0C
0D
1E
0F
0O
0N
0M
0L
0K
0J
0I
0H
zG
$end
#5000
1!
11
12
1F
10
1%
#10000
0!
01
02
#15000
1!
11
12
#20000
0!
01
02
#25000
1!
11
12
#30000
0!
01
02
#35000
1!
11
12
#40000
0!
01
02
#45000
1!
11
12
#50000
0!
01
02
#55000
1!
11
12
#60000
0!
01
02
#65000
1!
11
12
#70000
0!
01
02
#75000
1!
11
12
#80000
0!
01
02
#85000
1!
11
12
#90000
0!
01
02
#95000
1!
11
12
#100000
0!
01
02
#105000
1!
11
12
#110000
0!
01
02
#115000
1!
11
12
#120000
0!
01
02
#125000
1!
11
12
#130000
0!
01
02
#135000
1!
11
12
#140000
0!
01
02
#145000
1!
11
12
#150000
0!
01
02
#155000
1!
11
12
#160000
0!
01
02
#165000
1!
11
12
#170000
0!
01
02
#175000
1!
11
12
#180000
0!
01
02
#185000
1!
11
12
#190000
0!
01
02
#195000
1!
11
12
#200000
0!
01
02
#205000
1!
11
12
#210000
0!
01
02
#215000
1!
11
12
#220000
0!
01
02
#225000
1!
11
12
#230000
0!
01
02
#235000
1!
11
12
#240000
b10000000 "
b10100000 "
b10100010 "
b10100011 "
1$
0!
01
13
1<
1:
16
15
02
1B
1A
1@
1>
#245000
1!
11
12
1M
1L
1K
1I
#250000
0$
0!
01
03
02
1C
0@
1?
0>
#255000
1!
11
12
1N
0K
1J
0I
1D
0A
1@
0?
#260000
0!
01
02
#265000
1!
11
12
1O
0L
1K
0J
0E
0B
1A
0@
#270000
0!
01
02
#275000
1!
11
12
0M
1L
0K
0F
00
0%
0C
1B
0A
#280000
0!
01
02
#285000
1!
11
12
0N
1M
0L
0D
1C
0B
#290000
0!
01
02
#295000
1!
11
12
0O
1N
0M
1E
1D
0C
#300000
0!
01
02
#305000
1!
11
12
1O
0N
1F
10
1%
0E
0D
#310000
0!
01
02
#315000
1!
11
12
0O
0F
00
0%
1E
#320000
b100011 "
b11 "
b1 "
b0 "
0!
01
0<
0:
06
05
02
#325000
1!
11
12
1F
10
1%
#330000
0!
01
02
#335000
1!
11
12
#340000
0!
01
02
#345000
1!
11
12
#350000
0!
01
02
#355000
1!
11
12
#360000
0!
01
02
#365000
1!
11
12
#370000
0!
01
02
#375000
1!
11
12
#380000
0!
01
02
#385000
1!
11
12
#390000
0!
01
02
#395000
1!
11
12
#400000
0!
01
02
#405000
1!
11
12
#410000
0!
01
02
#415000
1!
11
12
#420000
0!
01
02
#425000
1!
11
12
#430000
0!
01
02
#435000
1!
11
12
#440000
0!
01
02
#445000
1!
11
12
#450000
0!
01
02
#455000
1!
11
12
#460000
0!
01
02
#465000
1!
11
12
#470000
0!
01
02
#475000
1!
11
12
#480000
0!
01
02
#485000
1!
11
12
#490000
0!
01
02
#495000
1!
11
12
#500000
0!
01
02
#505000
1!
11
12
#510000
0!
01
02
#515000
1!
11
12
#520000
0!
01
02
#525000
1!
11
12
#530000
0!
01
02
#535000
1!
11
12
#540000
0!
01
02
#545000
1!
11
12
#550000
0!
01
02
#555000
1!
11
12
#560000
0!
01
02
#565000
1!
11
12
#570000
0!
01
02
#575000
1!
11
12
#580000
0!
01
02
#585000
1!
11
12
#590000
0!
01
02
#595000
1!
11
12
#600000
0!
01
02
#605000
1!
11
12
#610000
0!
01
02
#615000
1!
11
12
#620000
0!
01
02
#625000
1!
11
12
#630000
0!
01
02
#635000
1!
11
12
#640000
0!
01
02
#645000
1!
11
12
#650000
0!
01
02
#655000
1!
11
12
#660000
0!
01
02
#665000
1!
11
12
#670000
0!
01
02
#675000
1!
11
12
#680000
0!
01
02
#685000
1!
11
12
#690000
0!
01
02
#695000
1!
11
12
#700000
0!
01
02
#705000
1!
11
12
#710000
0!
01
02
#715000
1!
11
12
#720000
0!
01
02
#725000
1!
11
12
#730000
0!
01
02
#735000
1!
11
12
#740000
0!
01
02
#745000
1!
11
12
#750000
0!
01
02
#755000
1!
11
12
#760000
0!
01
02
#765000
1!
11
12
#770000
0!
01
02
#775000
1!
11
12
#780000
0!
01
02
#785000
1!
11
12
#790000
0!
01
02
#795000
1!
11
12
#800000
0!
01
02
#805000
1!
11
12
#810000
0!
01
02
#815000
1!
11
12
#820000
0!
01
02
#825000
1!
11
12
#830000
0!
01
02
#835000
1!
11
12
#840000
0!
01
02
#845000
1!
11
12
#850000
0!
01
02
#855000
1!
11
12
#860000
0!
01
02
#865000
1!
11
12
#870000
0!
01
02
#875000
1!
11
12
#880000
0!
01
02
#885000
1!
11
12
#890000
0!
01
02
#895000
1!
11
12
#900000
0!
01
02
#905000
1!
11
12
#910000
0!
01
02
#915000
1!
11
12
#920000
0!
01
02
#925000
1!
11
12
#930000
0!
01
02
#935000
1!
11
12
#940000
0!
01
02
#945000
1!
11
12
#950000
0!
01
02
#955000
1!
11
12
#960000
0!
01
02
#965000
1!
11
12
#970000
0!
01
02
#975000
1!
11
12
#980000
0!
01
02
#985000
1!
11
12
#990000
0!
01
02
#995000
1!
11
12
